\relax 
\providecommand\hyper@newdestlabel[2]{}
\@writefile{toc}{\contentsline {section}{\numberline {1}Curve di Landau}{2}{section.1}}
\@writefile{toc}{\contentsline {subsection}{\numberline {1.1}Perdita di energia di particelle nella materia}{2}{subsection.1.1}}
\newlabel{eq:secondo}{{1}{2}{Perdita di energia di particelle nella materia}{equation.1.1}{}}
\newlabel{1@xvr}{{}{3}{Perdita di energia di particelle nella materia}{equation.1.1}{}}
\newlabel{1@vr}{{}{3}{Perdita di energia di particelle nella materia}{equation.1.1}{}}
\@writefile{lof}{\contentsline {figure}{\numberline {1}{\ignorespaces Stopping power in funzione dell'energia. La parte tratteggiata a destra indica il comportamento per $\left \delimiter "426830A -dE/dx \right \delimiter "526930B $ per particelle cariche pesanti con o senza correzione di densit\IeC {\`a}.\relax }}{3}{figure.caption.2}}
\providecommand*\caption@xref[2]{\@setref\relax\@undefined{#1}}
\newlabel{fig:figura1}{{1}{3}{Stopping power in funzione dell'energia. La parte tratteggiata a destra indica il comportamento per $\left \langle -dE/dx \right \rangle $ per particelle cariche pesanti con o senza correzione di densità.\relax }{figure.caption.2}{}}
\newlabel{2@xvr}{{}{4}{Perdita di energia di particelle nella materia}{figure.caption.2}{}}
\newlabel{2@vr}{{}{4}{Perdita di energia di particelle nella materia}{figure.caption.2}{}}
\@writefile{toc}{\contentsline {subsubsection}{\numberline {1.1.1}Distribuzione di Landau}{4}{subsubsection.1.1.1}}
\newlabel{3@xvr}{{}{4}{Distribuzione di Landau}{subsubsection.1.1.1}{}}
\newlabel{3@vr}{{}{4}{Distribuzione di Landau}{subsubsection.1.1.1}{}}
\newlabel{eq:collisional}{{2}{4}{Distribuzione di Landau}{equation.1.2}{}}
\newlabel{4@xvr}{{}{4}{Distribuzione di Landau}{equation.1.2}{}}
\newlabel{4@vr}{{}{4}{Distribuzione di Landau}{equation.1.2}{}}
\newlabel{5@xvr}{{}{4}{Distribuzione di Landau}{equation.1.2}{}}
\newlabel{5@vr}{{}{4}{Distribuzione di Landau}{equation.1.2}{}}
\newlabel{eq:Landau}{{3}{4}{Distribuzione di Landau}{equation.1.3}{}}
\newlabel{6@xvr}{{}{5}{Distribuzione di Landau}{equation.1.5}{}}
\newlabel{6@vr}{{}{5}{Distribuzione di Landau}{equation.1.5}{}}
\@writefile{toc}{\contentsline {subsubsection}{\numberline {1.1.2}Sorgente e decadimento beta}{5}{subsubsection.1.1.2}}
\newlabel{7@xvr}{{}{5}{Sorgente e decadimento beta}{subsubsection.1.1.2}{}}
\newlabel{7@vr}{{}{5}{Sorgente e decadimento beta}{subsubsection.1.1.2}{}}
\@writefile{toc}{\contentsline {subsection}{\numberline {1.2}Apparato sperimentale}{5}{subsection.1.2}}
\@writefile{toc}{\contentsline {subsubsection}{\numberline {1.2.1}Rivelatore al silicio}{5}{subsubsection.1.2.1}}
\@writefile{lof}{\contentsline {figure}{\numberline {2}{\ignorespaces Schema di decadimento dello $^{90}_{38}Sr$.\relax }}{6}{figure.caption.3}}
\newlabel{stronzio}{{2}{6}{Schema di decadimento dello $^{90}_{38}Sr$.\relax }{figure.caption.3}{}}
\@writefile{toc}{\contentsline {subsubsection}{\numberline {1.2.2}Studio delle strips del rivelatore a silicio}{6}{subsubsection.1.2.2}}
\newlabel{8@xvr}{{}{6}{Studio delle strips del rivelatore a silicio}{subsubsection.1.2.2}{}}
\newlabel{8@vr}{{}{6}{Studio delle strips del rivelatore a silicio}{subsubsection.1.2.2}{}}
\@writefile{lot}{\contentsline {table}{\numberline {1}{\ignorespaces Si riporta il rumore elettronico, misurato come $V_{rms}$, riferito a ciascun canale. In rosso sono segnalati i canali non funzionanti.\relax }}{7}{table.caption.4}}
\newlabel{tab:figura2}{{1}{7}{Si riporta il rumore elettronico, misurato come $V_{rms}$, riferito a ciascun canale. In rosso sono segnalati i canali non funzionanti.\relax }{table.caption.4}{}}
\newlabel{9@xvr}{{}{7}{Studio delle strips del rivelatore a silicio}{table.caption.4}{}}
\newlabel{9@vr}{{}{7}{Studio delle strips del rivelatore a silicio}{table.caption.4}{}}
\@writefile{lof}{\contentsline {figure}{\numberline {3}{\ignorespaces Orientamento dei piani del rivelatore a Silicio, in rosso sono indicate le strip non funzionanti.\relax }}{7}{figure.caption.5}}
\newlabel{fig:figura3}{{3}{7}{Orientamento dei piani del rivelatore a Silicio, in rosso sono indicate le strip non funzionanti.\relax }{figure.caption.5}{}}
\@writefile{toc}{\contentsline {subsubsection}{\numberline {1.2.3}Catena elettronica}{7}{subsubsection.1.2.3}}
\newlabel{10@xvr}{{}{8}{Catena elettronica}{subsubsection.1.2.3}{}}
\newlabel{10@vr}{{}{8}{Catena elettronica}{subsubsection.1.2.3}{}}
\@writefile{lof}{\contentsline {figure}{\numberline {4}{\ignorespaces Collegamenti delle unit\IeC {\`a} della catena elettronica.\relax }}{8}{figure.caption.6}}
\newlabel{fig:catena_elettronica}{{4}{8}{Collegamenti delle unità della catena elettronica.\relax }{figure.caption.6}{}}
\@writefile{toc}{\contentsline {subsubsection}{\numberline {1.2.4}Discriminatore}{8}{subsubsection.1.2.4}}
\@writefile{toc}{\contentsline {subsubsection}{\numberline {1.2.5}Unit\IeC {\`a} di coincidenza}{9}{subsubsection.1.2.5}}
\newlabel{11@xvr}{{}{9}{Unità di coincidenza}{subsubsection.1.2.5}{}}
\newlabel{11@vr}{{}{9}{Unità di coincidenza}{subsubsection.1.2.5}{}}
\@writefile{lof}{\contentsline {figure}{\numberline {5}{\ignorespaces Date due onde quadre sfasate in ingresso, l'unit\IeC {\`a} di coincidenza (CU) crea un onda quadra in uscita quando i segnali in ingresso hanno entrambi valore logico `\num {1}'.\relax }}{9}{figure.caption.7}}
\newlabel{fig:cu_schema}{{5}{9}{Date due onde quadre sfasate in ingresso, l'unità di coincidenza (CU) crea un onda quadra in uscita quando i segnali in ingresso hanno entrambi valore logico `\num {1}'.\relax }{figure.caption.7}{}}
\newlabel{12@xvr}{{}{9}{Unità di coincidenza}{figure.caption.7}{}}
\newlabel{12@vr}{{}{9}{Unità di coincidenza}{figure.caption.7}{}}
\@writefile{lof}{\contentsline {figure}{\numberline {6}{\ignorespaces Segnali dei due trigger all'uscita del discriminatore.\relax }}{9}{figure.caption.8}}
\newlabel{fig:figura4}{{6}{9}{Segnali dei due trigger all'uscita del discriminatore.\relax }{figure.caption.8}{}}
\@writefile{toc}{\contentsline {subsubsection}{\numberline {1.2.6}Dual timer}{9}{subsubsection.1.2.6}}
\@writefile{toc}{\contentsline {subsubsection}{\numberline {1.2.7}Unit\IeC {\`a} di ritardo}{10}{subsubsection.1.2.7}}
\@writefile{lof}{\contentsline {figure}{\numberline {7}{\ignorespaces Segnale e trigger, il primo in uscita dall'unit\IeC {\`a} di ritardo, il secondo dal Dual Timer.\relax }}{10}{figure.caption.9}}
\newlabel{fig:figura5}{{7}{10}{Segnale e trigger, il primo in uscita dall'unità di ritardo, il secondo dal Dual Timer.\relax }{figure.caption.9}{}}
\@writefile{toc}{\contentsline {subsubsection}{\numberline {1.2.8}Multichannel Analyzer}{10}{subsubsection.1.2.8}}
\@writefile{toc}{\contentsline {subsection}{\numberline {1.3}Singolo Piano}{11}{subsection.1.3}}
\@writefile{toc}{\contentsline {subsubsection}{\numberline {1.3.1}Acquisizione dati}{11}{subsubsection.1.3.1}}
\newlabel{13@xvr}{{}{11}{Acquisizione dati}{subsubsection.1.3.1}{}}
\newlabel{13@vr}{{}{11}{Acquisizione dati}{subsubsection.1.3.1}{}}
\newlabel{14@xvr}{{}{11}{Acquisizione dati}{subsubsection.1.3.1}{}}
\newlabel{14@vr}{{}{11}{Acquisizione dati}{subsubsection.1.3.1}{}}
\newlabel{15@xvr}{{}{11}{Acquisizione dati}{subsubsection.1.3.1}{}}
\newlabel{15@vr}{{}{11}{Acquisizione dati}{subsubsection.1.3.1}{}}
\@writefile{lof}{\contentsline {figure}{\numberline {8}{\ignorespaces Collegamenti delle unit\IeC {\`a} della catena elettronica.\relax }}{11}{figure.caption.10}}
\newlabel{fig:catena1}{{8}{11}{Collegamenti delle unità della catena elettronica.\relax }{figure.caption.10}{}}
\newlabel{16@xvr}{{}{12}{Acquisizione dati}{figure.caption.10}{}}
\newlabel{16@vr}{{}{12}{Acquisizione dati}{figure.caption.10}{}}
\@writefile{lof}{\contentsline {figure}{\numberline {9}{\ignorespaces Spettro del rumore ottenuto tramite lo sfasamento temporale tra gate e segnale.\relax }}{12}{figure.caption.11}}
\newlabel{plot:rum}{{9}{12}{Spettro del rumore ottenuto tramite lo sfasamento temporale tra gate e segnale.\relax }{figure.caption.11}{}}
\newlabel{17@xvr}{{}{12}{Acquisizione dati}{figure.caption.11}{}}
\newlabel{17@vr}{{}{12}{Acquisizione dati}{figure.caption.11}{}}
\newlabel{18@xvr}{{}{12}{Acquisizione dati}{figure.caption.11}{}}
\newlabel{18@vr}{{}{12}{Acquisizione dati}{figure.caption.11}{}}
\@writefile{lof}{\contentsline {figure}{\numberline {10}{\ignorespaces Collegamenti delle unit\IeC {\`a} della catena elettronica.\relax }}{12}{figure.caption.12}}
\newlabel{fig:catena2}{{10}{12}{Collegamenti delle unità della catena elettronica.\relax }{figure.caption.12}{}}
\newlabel{19@xvr}{{}{13}{Acquisizione dati}{figure.caption.12}{}}
\newlabel{19@vr}{{}{13}{Acquisizione dati}{figure.caption.12}{}}
\@writefile{toc}{\contentsline {subsubsection}{\numberline {1.3.2}Analisi Dati}{13}{subsubsection.1.3.2}}
\newlabel{20@xvr}{{}{13}{Analisi Dati}{subsubsection.1.3.2}{}}
\newlabel{20@vr}{{}{13}{Analisi Dati}{subsubsection.1.3.2}{}}
\@writefile{lof}{\contentsline {figure}{\numberline {11}{\ignorespaces Dati dello spettro e fit con la somma di due gaussiane e una curva di Landau.\relax }}{13}{figure.caption.13}}
\newlabel{plot:land_rum}{{11}{13}{Dati dello spettro e fit con la somma di due gaussiane e una curva di Landau.\relax }{figure.caption.13}{}}
\newlabel{21@xvr}{{}{13}{Analisi Dati}{figure.caption.13}{}}
\newlabel{21@vr}{{}{13}{Analisi Dati}{figure.caption.13}{}}
\@writefile{lot}{\contentsline {table}{\numberline {2}{\ignorespaces Nella prima casella si riporta il $\chi ^2$ del fit, mentre nelle successive media e deviazione standard della Landau fittata.\relax }}{13}{table.caption.14}}
\newlabel{tab:fit_1p_rum}{{2}{13}{Nella prima casella si riporta il $\chi ^2$ del fit, mentre nelle successive media e deviazione standard della Landau fittata.\relax }{table.caption.14}{}}
\newlabel{22@xvr}{{}{13}{Analisi Dati}{table.caption.14}{}}
\newlabel{22@vr}{{}{13}{Analisi Dati}{table.caption.14}{}}
\newlabel{23@xvr}{{}{13}{Analisi Dati}{figure.caption.15}{}}
\newlabel{23@vr}{{}{13}{Analisi Dati}{figure.caption.15}{}}
\@writefile{lof}{\contentsline {figure}{\numberline {12}{\ignorespaces Fit sul picco dei dati con una sola curva Landau.\relax }}{14}{figure.caption.15}}
\newlabel{plot:land_1p}{{12}{14}{Fit sul picco dei dati con una sola curva Landau.\relax }{figure.caption.15}{}}
\@writefile{lot}{\contentsline {table}{\numberline {3}{\ignorespaces Nella prima casella si riporta il $\chi ^2$ del fit, mentre nelle successive media e deviazione standard della Landau fittata.\relax }}{14}{table.caption.16}}
\newlabel{tab:fit_1p}{{3}{14}{Nella prima casella si riporta il $\chi ^2$ del fit, mentre nelle successive media e deviazione standard della Landau fittata.\relax }{table.caption.16}{}}
\newlabel{24@xvr}{{}{15}{Analisi Dati}{table.caption.16}{}}
\newlabel{24@vr}{{}{15}{Analisi Dati}{table.caption.16}{}}
\@writefile{lof}{\contentsline {figure}{\numberline {13}{\ignorespaces Dati della curva Landau con fit (curva blu). Il fit \IeC {\`e} stato eseguito con una Landau (curva verde) convoluta ad una gaussiana (curva rossa).\relax }}{15}{figure.caption.17}}
\newlabel{fig:landau_roofit}{{13}{15}{Dati della curva Landau con fit (curva blu). Il fit è stato eseguito con una Landau (curva verde) convoluta ad una gaussiana (curva rossa).\relax }{figure.caption.17}{}}
\@writefile{toc}{\contentsline {subsection}{\numberline {1.4}Multi-Piano}{15}{subsection.1.4}}
\@writefile{toc}{\contentsline {subsubsection}{\numberline {1.4.1}Acquisizione dati}{15}{subsubsection.1.4.1}}
\newlabel{25@xvr}{{}{15}{Acquisizione dati}{subsubsection.1.4.1}{}}
\newlabel{25@vr}{{}{15}{Acquisizione dati}{subsubsection.1.4.1}{}}
\newlabel{26@xvr}{{}{15}{Acquisizione dati}{subsubsection.1.4.1}{}}
\newlabel{26@vr}{{}{15}{Acquisizione dati}{subsubsection.1.4.1}{}}
\@writefile{toc}{\contentsline {subsubsection}{\numberline {1.4.2}Analisi Dati}{15}{subsubsection.1.4.2}}
\newlabel{27@xvr}{{}{15}{Analisi Dati}{subsubsection.1.4.2}{}}
\newlabel{27@vr}{{}{15}{Analisi Dati}{subsubsection.1.4.2}{}}
\@writefile{lof}{\contentsline {figure}{\numberline {14}{\ignorespaces Collegamenti delle unit\IeC {\`a} della catena elettronica, per l'acquisizione della somma del segnale di due piani.\relax }}{16}{figure.caption.18}}
\newlabel{fig:catena3}{{14}{16}{Collegamenti delle unità della catena elettronica, per l'acquisizione della somma del segnale di due piani.\relax }{figure.caption.18}{}}
\@writefile{lof}{\contentsline {figure}{\numberline {15}{\ignorespaces Spettri delle curve Landau con 1, 2 e 3 piani.\relax }}{16}{figure.caption.19}}
\newlabel{plot:landau_np}{{15}{16}{Spettri delle curve Landau con 1, 2 e 3 piani.\relax }{figure.caption.19}{}}
\@writefile{toc}{\contentsline {subsection}{\numberline {1.5}Simulazione}{17}{subsection.1.5}}
\newlabel{Simulazione 1 piano}{{\caption@xref {Simulazione 1 piano}{ on input line 587}}{17}{Simulazione}{figure.caption.20}{}}
\newlabel{Simulazione 2 piano}{{\caption@xref {Simulazione 2 piano}{ on input line 598}}{17}{Simulazione}{figure.caption.20}{}}
\newlabel{Simulazione 3 piani}{{\caption@xref {Simulazione 3 piani}{ on input line 609}}{17}{Simulazione}{figure.caption.20}{}}
\@writefile{lof}{\contentsline {figure}{\numberline {16}{\ignorespaces Simulazioni effettuate con Geant4 delle curve landau con uno, due e tre piani di silicio spessi \SI {200}{\micro \meter } ciascuno.\relax }}{17}{figure.caption.20}}
\newlabel{fig:sim}{{16}{17}{Simulazioni effettuate con Geant4 delle curve landau con uno, due e tre piani di silicio spessi \SI {200}{\micro \meter } ciascuno.\relax }{figure.caption.20}{}}
\newlabel{28@xvr}{{}{18}{Simulazione}{figure.caption.20}{}}
\newlabel{28@vr}{{}{18}{Simulazione}{figure.caption.20}{}}
\@setckpt{Landau/Landau}{
\setcounter{page}{19}
\setcounter{equation}{6}
\setcounter{enumi}{0}
\setcounter{enumii}{0}
\setcounter{enumiii}{0}
\setcounter{enumiv}{0}
\setcounter{footnote}{2}
\setcounter{mpfootnote}{0}
\setcounter{part}{0}
\setcounter{section}{1}
\setcounter{subsection}{5}
\setcounter{subsubsection}{0}
\setcounter{paragraph}{0}
\setcounter{subparagraph}{0}
\setcounter{figure}{16}
\setcounter{table}{3}
\setcounter{@pps}{0}
\setcounter{@ppsavesec}{0}
\setcounter{@ppsaveapp}{0}
\setcounter{parentequation}{0}
\setcounter{AM@survey}{0}
\setcounter{float@type}{8}
\setcounter{ContinuedFloat}{0}
\setcounter{blindtext}{1}
\setcounter{Blindtext}{5}
\setcounter{blind@countparstart}{0}
\setcounter{blindlist}{0}
\setcounter{blindlistlevel}{0}
\setcounter{blindlist@level}{0}
\setcounter{blind@listcount}{0}
\setcounter{blind@levelcount}{0}
\setcounter{blind@randomcount}{0}
\setcounter{blind@randommax}{0}
\setcounter{blind@pangramcount}{0}
\setcounter{blind@pangrammax}{0}
\setcounter{LT@tables}{0}
\setcounter{LT@chunks}{0}
\setcounter{r@tfl@t}{0}
\setcounter{subfigure}{0}
\setcounter{lofdepth}{1}
\setcounter{subtable}{0}
\setcounter{lotdepth}{1}
\setcounter{lstnumber}{1}
\setcounter{vrcnt}{28}
\setcounter{Item}{0}
\setcounter{Hfootnote}{2}
\setcounter{bookmark@seq@number}{20}
\setcounter{lstlisting}{0}
\setcounter{section@level}{2}
}
