 fSumw[0]=0, x=-0.5, error=0
 fSumw[1]=0, x=0.5, error=0
 fSumw[2]=0, x=1.5, error=0
 fSumw[3]=0, x=2.5, error=0
 fSumw[4]=0, x=3.5, error=0
 fSumw[5]=0, x=4.5, error=0
 fSumw[6]=0, x=5.5, error=0
 fSumw[7]=1, x=6.5, error=1
 fSumw[8]=1, x=7.5, error=1
 fSumw[9]=0, x=8.5, error=0
 fSumw[10]=2, x=9.5, error=1.41421
 fSumw[11]=0, x=10.5, error=0
 fSumw[12]=1, x=11.5, error=1
 fSumw[13]=2, x=12.5, error=1.41421
 fSumw[14]=0, x=13.5, error=0
 fSumw[15]=0, x=14.5, error=0
 fSumw[16]=1, x=15.5, error=1
 fSumw[17]=3, x=16.5, error=1.73205
 fSumw[18]=2, x=17.5, error=1.41421
 fSumw[19]=2, x=18.5, error=1.41421
 fSumw[20]=3, x=19.5, error=1.73205
 fSumw[21]=3, x=20.5, error=1.73205
 fSumw[22]=10, x=21.5, error=3.16228
 fSumw[23]=8, x=22.5, error=2.82843
 fSumw[24]=4, x=23.5, error=2
 fSumw[25]=4, x=24.5, error=2
 fSumw[26]=12, x=25.5, error=3.4641
 fSumw[27]=9, x=26.5, error=3
 fSumw[28]=16, x=27.5, error=4
 fSumw[29]=10, x=28.5, error=3.16228
 fSumw[30]=17, x=29.5, error=4.12311
 fSumw[31]=9, x=30.5, error=3
 fSumw[32]=18, x=31.5, error=4.24264
 fSumw[33]=25, x=32.5, error=5
 fSumw[34]=25, x=33.5, error=5
 fSumw[35]=31, x=34.5, error=5.56776
 fSumw[36]=27, x=35.5, error=5.19615
 fSumw[37]=24, x=36.5, error=4.89898
 fSumw[38]=36, x=37.5, error=6
 fSumw[39]=32, x=38.5, error=5.65685
 fSumw[40]=43, x=39.5, error=6.55744
 fSumw[41]=46, x=40.5, error=6.78233
 fSumw[42]=46, x=41.5, error=6.78233
 fSumw[43]=45, x=42.5, error=6.7082
 fSumw[44]=69, x=43.5, error=8.30662
 fSumw[45]=66, x=44.5, error=8.12404
 fSumw[46]=68, x=45.5, error=8.24621
 fSumw[47]=68, x=46.5, error=8.24621
 fSumw[48]=75, x=47.5, error=8.66025
 fSumw[49]=95, x=48.5, error=9.74679
 fSumw[50]=77, x=49.5, error=8.77496
 fSumw[51]=95, x=50.5, error=9.74679
 fSumw[52]=100, x=51.5, error=10
 fSumw[53]=108, x=52.5, error=10.3923
 fSumw[54]=118, x=53.5, error=10.8628
 fSumw[55]=103, x=54.5, error=10.1489
 fSumw[56]=98, x=55.5, error=9.89949
 fSumw[57]=127, x=56.5, error=11.2694
 fSumw[58]=130, x=57.5, error=11.4018
 fSumw[59]=111, x=58.5, error=10.5357
 fSumw[60]=118, x=59.5, error=10.8628
 fSumw[61]=131, x=60.5, error=11.4455
 fSumw[62]=106, x=61.5, error=10.2956
 fSumw[63]=121, x=62.5, error=11
 fSumw[64]=137, x=63.5, error=11.7047
 fSumw[65]=118, x=64.5, error=10.8628
 fSumw[66]=135, x=65.5, error=11.619
 fSumw[67]=129, x=66.5, error=11.3578
 fSumw[68]=160, x=67.5, error=12.6491
 fSumw[69]=159, x=68.5, error=12.6095
 fSumw[70]=145, x=69.5, error=12.0416
 fSumw[71]=143, x=70.5, error=11.9583
 fSumw[72]=137, x=71.5, error=11.7047
 fSumw[73]=162, x=72.5, error=12.7279
 fSumw[74]=186, x=73.5, error=13.6382
 fSumw[75]=186, x=74.5, error=13.6382
 fSumw[76]=174, x=75.5, error=13.1909
 fSumw[77]=173, x=76.5, error=13.1529
 fSumw[78]=180, x=77.5, error=13.4164
 fSumw[79]=163, x=78.5, error=12.7671
 fSumw[80]=156, x=79.5, error=12.49
 fSumw[81]=166, x=80.5, error=12.8841
 fSumw[82]=208, x=81.5, error=14.4222
 fSumw[83]=191, x=82.5, error=13.8203
 fSumw[84]=208, x=83.5, error=14.4222
 fSumw[85]=191, x=84.5, error=13.8203
 fSumw[86]=175, x=85.5, error=13.2288
 fSumw[87]=240, x=86.5, error=15.4919
 fSumw[88]=181, x=87.5, error=13.4536
 fSumw[89]=185, x=88.5, error=13.6015
 fSumw[90]=202, x=89.5, error=14.2127
 fSumw[91]=207, x=90.5, error=14.3875
 fSumw[92]=254, x=91.5, error=15.9374
 fSumw[93]=236, x=92.5, error=15.3623
 fSumw[94]=233, x=93.5, error=15.2643
 fSumw[95]=233, x=94.5, error=15.2643
 fSumw[96]=221, x=95.5, error=14.8661
 fSumw[97]=245, x=96.5, error=15.6525
 fSumw[98]=247, x=97.5, error=15.7162
 fSumw[99]=250, x=98.5, error=15.8114
 fSumw[100]=250, x=99.5, error=15.8114
 fSumw[101]=229, x=100.5, error=15.1327
 fSumw[102]=262, x=101.5, error=16.1864
 fSumw[103]=262, x=102.5, error=16.1864
 fSumw[104]=253, x=103.5, error=15.906
 fSumw[105]=300, x=104.5, error=17.3205
 fSumw[106]=327, x=105.5, error=18.0831
 fSumw[107]=309, x=106.5, error=17.5784
 fSumw[108]=320, x=107.5, error=17.8885
 fSumw[109]=371, x=108.5, error=19.2614
 fSumw[110]=384, x=109.5, error=19.5959
 fSumw[111]=371, x=110.5, error=19.2614
 fSumw[112]=424, x=111.5, error=20.5913
 fSumw[113]=464, x=112.5, error=21.5407
 fSumw[114]=524, x=113.5, error=22.891
 fSumw[115]=546, x=114.5, error=23.3666
 fSumw[116]=602, x=115.5, error=24.5357
 fSumw[117]=622, x=116.5, error=24.9399
 fSumw[118]=693, x=117.5, error=26.3249
 fSumw[119]=772, x=118.5, error=27.7849
 fSumw[120]=860, x=119.5, error=29.3258
 fSumw[121]=933, x=120.5, error=30.545
 fSumw[122]=957, x=121.5, error=30.9354
 fSumw[123]=1146, x=122.5, error=33.8526
 fSumw[124]=1199, x=123.5, error=34.6266
 fSumw[125]=1247, x=124.5, error=35.3129
 fSumw[126]=1293, x=125.5, error=35.9583
 fSumw[127]=1509, x=126.5, error=38.8458
 fSumw[128]=1590, x=127.5, error=39.8748
 fSumw[129]=1662, x=128.5, error=40.7676
 fSumw[130]=1767, x=129.5, error=42.0357
 fSumw[131]=1974, x=130.5, error=44.4297
 fSumw[132]=1989, x=131.5, error=44.5982
 fSumw[133]=2085, x=132.5, error=45.6618
 fSumw[134]=2213, x=133.5, error=47.0425
 fSumw[135]=2286, x=134.5, error=47.8121
 fSumw[136]=2482, x=135.5, error=49.8197
 fSumw[137]=2577, x=136.5, error=50.7642
 fSumw[138]=2740, x=137.5, error=52.345
 fSumw[139]=2850, x=138.5, error=53.3854
 fSumw[140]=3012, x=139.5, error=54.8817
 fSumw[141]=3074, x=140.5, error=55.4437
 fSumw[142]=3173, x=141.5, error=56.3294
 fSumw[143]=3301, x=142.5, error=57.4543
 fSumw[144]=3383, x=143.5, error=58.1636
 fSumw[145]=3353, x=144.5, error=57.9051
 fSumw[146]=3563, x=145.5, error=59.6909
 fSumw[147]=3699, x=146.5, error=60.8194
 fSumw[148]=3792, x=147.5, error=61.5792
 fSumw[149]=3827, x=148.5, error=61.8628
 fSumw[150]=3787, x=149.5, error=61.5386
 fSumw[151]=3956, x=150.5, error=62.8967
 fSumw[152]=4165, x=151.5, error=64.5368
 fSumw[153]=4146, x=152.5, error=64.3894
 fSumw[154]=4184, x=153.5, error=64.6838
 fSumw[155]=4220, x=154.5, error=64.9615
 fSumw[156]=4525, x=155.5, error=67.2681
 fSumw[157]=4408, x=156.5, error=66.3928
 fSumw[158]=4493, x=157.5, error=67.0298
 fSumw[159]=4455, x=158.5, error=66.7458
 fSumw[160]=4394, x=159.5, error=66.2873
 fSumw[161]=4590, x=160.5, error=67.7495
 fSumw[162]=4410, x=161.5, error=66.4078
 fSumw[163]=4549, x=162.5, error=67.4463
 fSumw[164]=4600, x=163.5, error=67.8233
 fSumw[165]=4661, x=164.5, error=68.2715
 fSumw[166]=4735, x=165.5, error=68.8113
 fSumw[167]=4750, x=166.5, error=68.9202
 fSumw[168]=4766, x=167.5, error=69.0362
 fSumw[169]=4682, x=168.5, error=68.4251
 fSumw[170]=4785, x=169.5, error=69.1737
 fSumw[171]=4787, x=170.5, error=69.1881
 fSumw[172]=4815, x=171.5, error=69.3902
 fSumw[173]=4637, x=172.5, error=68.0955
 fSumw[174]=4753, x=173.5, error=68.942
 fSumw[175]=4717, x=174.5, error=68.6804
 fSumw[176]=4682, x=175.5, error=68.4251
 fSumw[177]=4646, x=176.5, error=68.1616
 fSumw[178]=4710, x=177.5, error=68.6294
 fSumw[179]=4726, x=178.5, error=68.7459
 fSumw[180]=4676, x=179.5, error=68.3813
 fSumw[181]=4515, x=180.5, error=67.1937
 fSumw[182]=4589, x=181.5, error=67.7422
 fSumw[183]=4551, x=182.5, error=67.4611
 fSumw[184]=4656, x=183.5, error=68.2349
 fSumw[185]=4535, x=184.5, error=67.3424
 fSumw[186]=4598, x=185.5, error=67.8086
 fSumw[187]=4652, x=186.5, error=68.2056
 fSumw[188]=4553, x=187.5, error=67.4759
 fSumw[189]=4429, x=188.5, error=66.5507
 fSumw[190]=4439, x=189.5, error=66.6258
 fSumw[191]=4395, x=190.5, error=66.2948
 fSumw[192]=4399, x=191.5, error=66.325
 fSumw[193]=4466, x=192.5, error=66.8281
 fSumw[194]=4406, x=193.5, error=66.3777
 fSumw[195]=4408, x=194.5, error=66.3928
 fSumw[196]=4267, x=195.5, error=65.3223
 fSumw[197]=4241, x=196.5, error=65.123
 fSumw[198]=4254, x=197.5, error=65.2227
 fSumw[199]=4172, x=198.5, error=64.591
 fSumw[200]=4114, x=199.5, error=64.1405
 fSumw[201]=4125, x=200.5, error=64.2262
 fSumw[202]=4202, x=201.5, error=64.8228
 fSumw[203]=4087, x=202.5, error=63.9296
 fSumw[204]=4098, x=203.5, error=64.0156
 fSumw[205]=4010, x=204.5, error=63.3246
 fSumw[206]=4019, x=205.5, error=63.3956
 fSumw[207]=4005, x=206.5, error=63.2851
 fSumw[208]=4005, x=207.5, error=63.2851
 fSumw[209]=3927, x=208.5, error=62.6658
 fSumw[210]=3992, x=209.5, error=63.1823
 fSumw[211]=3780, x=210.5, error=61.4817
 fSumw[212]=3788, x=211.5, error=61.5467
 fSumw[213]=3800, x=212.5, error=61.6441
 fSumw[214]=3723, x=213.5, error=61.0164
 fSumw[215]=3768, x=214.5, error=61.384
 fSumw[216]=3736, x=215.5, error=61.1228
 fSumw[217]=3622, x=216.5, error=60.1831
 fSumw[218]=3710, x=217.5, error=60.9098
 fSumw[219]=3549, x=218.5, error=59.5735
 fSumw[220]=3534, x=219.5, error=59.4475
 fSumw[221]=3405, x=220.5, error=58.3524
 fSumw[222]=3439, x=221.5, error=58.643
 fSumw[223]=3527, x=222.5, error=59.3886
 fSumw[224]=3503, x=223.5, error=59.1861
 fSumw[225]=3374, x=224.5, error=58.0861
 fSumw[226]=3371, x=225.5, error=58.0603
 fSumw[227]=3368, x=226.5, error=58.0345
 fSumw[228]=3301, x=227.5, error=57.4543
 fSumw[229]=3308, x=228.5, error=57.5152
 fSumw[230]=3405, x=229.5, error=58.3524
 fSumw[231]=3172, x=230.5, error=56.3205
 fSumw[232]=3213, x=231.5, error=56.6833
 fSumw[233]=3168, x=232.5, error=56.285
 fSumw[234]=3124, x=233.5, error=55.8928
 fSumw[235]=3131, x=234.5, error=55.9553
 fSumw[236]=3127, x=235.5, error=55.9196
 fSumw[237]=3054, x=236.5, error=55.263
 fSumw[238]=3054, x=237.5, error=55.263
 fSumw[239]=2966, x=238.5, error=54.461
 fSumw[240]=2994, x=239.5, error=54.7175
 fSumw[241]=2925, x=240.5, error=54.0833
 fSumw[242]=2960, x=241.5, error=54.4059
 fSumw[243]=2894, x=242.5, error=53.7959
 fSumw[244]=2967, x=243.5, error=54.4702
 fSumw[245]=2836, x=244.5, error=53.2541
 fSumw[246]=2812, x=245.5, error=53.0283
 fSumw[247]=2794, x=246.5, error=52.8583
 fSumw[248]=2811, x=247.5, error=53.0189
 fSumw[249]=2789, x=248.5, error=52.811
 fSumw[250]=2784, x=249.5, error=52.7636
 fSumw[251]=2652, x=250.5, error=51.4976
 fSumw[252]=2739, x=251.5, error=52.3355
 fSumw[253]=2662, x=252.5, error=51.5946
 fSumw[254]=2749, x=253.5, error=52.4309
 fSumw[255]=2617, x=254.5, error=51.1566
 fSumw[256]=2614, x=255.5, error=51.1273
 fSumw[257]=2601, x=256.5, error=51
 fSumw[258]=2500, x=257.5, error=50
 fSumw[259]=2549, x=258.5, error=50.4876
 fSumw[260]=2460, x=259.5, error=49.5984
 fSumw[261]=2472, x=260.5, error=49.7192
 fSumw[262]=2581, x=261.5, error=50.8035
 fSumw[263]=2428, x=262.5, error=49.2747
 fSumw[264]=2438, x=263.5, error=49.3761
 fSumw[265]=2462, x=264.5, error=49.6185
 fSumw[266]=2377, x=265.5, error=48.7545
 fSumw[267]=2471, x=266.5, error=49.7092
 fSumw[268]=2420, x=267.5, error=49.1935
 fSumw[269]=2354, x=268.5, error=48.518
 fSumw[270]=2328, x=269.5, error=48.2494
 fSumw[271]=2380, x=270.5, error=48.7852
 fSumw[272]=2313, x=271.5, error=48.0937
 fSumw[273]=2281, x=272.5, error=47.7598
 fSumw[274]=2224, x=273.5, error=47.1593
 fSumw[275]=2230, x=274.5, error=47.2229
 fSumw[276]=2152, x=275.5, error=46.3897
 fSumw[277]=2282, x=276.5, error=47.7703
 fSumw[278]=2181, x=277.5, error=46.7012
 fSumw[279]=2157, x=278.5, error=46.4435
 fSumw[280]=2194, x=279.5, error=46.8402
 fSumw[281]=2155, x=280.5, error=46.422
 fSumw[282]=2145, x=281.5, error=46.3141
 fSumw[283]=2186, x=282.5, error=46.7547
 fSumw[284]=2104, x=283.5, error=45.8694
 fSumw[285]=2025, x=284.5, error=45
 fSumw[286]=2081, x=285.5, error=45.618
 fSumw[287]=2103, x=286.5, error=45.8585
 fSumw[288]=2109, x=287.5, error=45.9239
 fSumw[289]=2031, x=288.5, error=45.0666
 fSumw[290]=1998, x=289.5, error=44.699
 fSumw[291]=1968, x=290.5, error=44.3621
 fSumw[292]=1998, x=291.5, error=44.699
 fSumw[293]=1933, x=292.5, error=43.9659
 fSumw[294]=1972, x=293.5, error=44.4072
 fSumw[295]=1882, x=294.5, error=43.382
 fSumw[296]=1941, x=295.5, error=44.0568
 fSumw[297]=1863, x=296.5, error=43.1625
 fSumw[298]=1942, x=297.5, error=44.0681
 fSumw[299]=1800, x=298.5, error=42.4264
 fSumw[300]=1917, x=299.5, error=43.7836
 fSumw[301]=1883, x=300.5, error=43.3935
 fSumw[302]=1807, x=301.5, error=42.5088
 fSumw[303]=1791, x=302.5, error=42.3202
 fSumw[304]=1851, x=303.5, error=43.0232
 fSumw[305]=1762, x=304.5, error=41.9762
 fSumw[306]=1752, x=305.5, error=41.8569
 fSumw[307]=1839, x=306.5, error=42.8836
 fSumw[308]=1757, x=307.5, error=41.9166
 fSumw[309]=1826, x=308.5, error=42.7317
 fSumw[310]=1790, x=309.5, error=42.3084
 fSumw[311]=1753, x=310.5, error=41.8688
 fSumw[312]=1667, x=311.5, error=40.8289
 fSumw[313]=1773, x=312.5, error=42.107
 fSumw[314]=1673, x=313.5, error=40.9023
 fSumw[315]=1682, x=314.5, error=41.0122
 fSumw[316]=1667, x=315.5, error=40.8289
 fSumw[317]=1638, x=316.5, error=40.4722
 fSumw[318]=1672, x=317.5, error=40.8901
 fSumw[319]=1689, x=318.5, error=41.0974
 fSumw[320]=1621, x=319.5, error=40.2616
 fSumw[321]=1573, x=320.5, error=39.6611
 fSumw[322]=1602, x=321.5, error=40.025
 fSumw[323]=1547, x=322.5, error=39.3319
 fSumw[324]=1651, x=323.5, error=40.6325
 fSumw[325]=1628, x=324.5, error=40.3485
 fSumw[326]=1534, x=325.5, error=39.1663
 fSumw[327]=1625, x=326.5, error=40.3113
 fSumw[328]=1568, x=327.5, error=39.598
 fSumw[329]=1574, x=328.5, error=39.6737
 fSumw[330]=1588, x=329.5, error=39.8497
 fSumw[331]=1528, x=330.5, error=39.0896
 fSumw[332]=1528, x=331.5, error=39.0896
 fSumw[333]=1530, x=332.5, error=39.1152
 fSumw[334]=1505, x=333.5, error=38.7943
 fSumw[335]=1520, x=334.5, error=38.9872
 fSumw[336]=1526, x=335.5, error=39.064
 fSumw[337]=1496, x=336.5, error=38.6782
 fSumw[338]=1485, x=337.5, error=38.5357
 fSumw[339]=1492, x=338.5, error=38.6264
 fSumw[340]=1545, x=339.5, error=39.3065
 fSumw[341]=1416, x=340.5, error=37.6298
 fSumw[342]=1484, x=341.5, error=38.5227
 fSumw[343]=1383, x=342.5, error=37.1887
 fSumw[344]=1412, x=343.5, error=37.5766
 fSumw[345]=1412, x=344.5, error=37.5766
 fSumw[346]=1457, x=345.5, error=38.1707
 fSumw[347]=1406, x=346.5, error=37.4967
 fSumw[348]=1372, x=347.5, error=37.0405
 fSumw[349]=1387, x=348.5, error=37.2424
 fSumw[350]=1346, x=349.5, error=36.6879
 fSumw[351]=1388, x=350.5, error=37.2559
 fSumw[352]=1338, x=351.5, error=36.5787
 fSumw[353]=1371, x=352.5, error=37.027
 fSumw[354]=1319, x=353.5, error=36.318
 fSumw[355]=1309, x=354.5, error=36.1801
 fSumw[356]=1336, x=355.5, error=36.5513
 fSumw[357]=1289, x=356.5, error=35.9026
 fSumw[358]=1310, x=357.5, error=36.1939
 fSumw[359]=1318, x=358.5, error=36.3043
 fSumw[360]=1319, x=359.5, error=36.318
 fSumw[361]=1314, x=360.5, error=36.2491
 fSumw[362]=1297, x=361.5, error=36.0139
 fSumw[363]=1325, x=362.5, error=36.4005
 fSumw[364]=1273, x=363.5, error=35.6791
 fSumw[365]=1261, x=364.5, error=35.5106
 fSumw[366]=1211, x=365.5, error=34.7994
 fSumw[367]=1238, x=366.5, error=35.1852
 fSumw[368]=1274, x=367.5, error=35.6931
 fSumw[369]=1254, x=368.5, error=35.4119
 fSumw[370]=1221, x=369.5, error=34.9428
 fSumw[371]=1290, x=370.5, error=35.9166
 fSumw[372]=1298, x=371.5, error=36.0278
 fSumw[373]=1197, x=372.5, error=34.5977
 fSumw[374]=1206, x=373.5, error=34.7275
 fSumw[375]=1248, x=374.5, error=35.327
 fSumw[376]=1136, x=375.5, error=33.7046
 fSumw[377]=1188, x=376.5, error=34.4674
 fSumw[378]=1195, x=377.5, error=34.5688
 fSumw[379]=1230, x=378.5, error=35.0714
 fSumw[380]=1225, x=379.5, error=35
 fSumw[381]=1231, x=380.5, error=35.0856
 fSumw[382]=1191, x=381.5, error=34.5109
 fSumw[383]=1076, x=382.5, error=32.8024
 fSumw[384]=1220, x=383.5, error=34.9285
 fSumw[385]=1123, x=384.5, error=33.5112
 fSumw[386]=1148, x=385.5, error=33.8821
 fSumw[387]=1183, x=386.5, error=34.3948
 fSumw[388]=1113, x=387.5, error=33.3617
 fSumw[389]=1164, x=388.5, error=34.1174
 fSumw[390]=1065, x=389.5, error=32.6343
 fSumw[391]=1163, x=390.5, error=34.1028
 fSumw[392]=1040, x=391.5, error=32.249
 fSumw[393]=1098, x=392.5, error=33.1361
 fSumw[394]=1129, x=393.5, error=33.6006
 fSumw[395]=1022, x=394.5, error=31.9687
 fSumw[396]=1097, x=395.5, error=33.121
 fSumw[397]=1159, x=396.5, error=34.0441
 fSumw[398]=1113, x=397.5, error=33.3617
 fSumw[399]=1070, x=398.5, error=32.7109
 fSumw[400]=1113, x=399.5, error=33.3617
 fSumw[401]=1109, x=400.5, error=33.3017
 fSumw[402]=1085, x=401.5, error=32.9393
 fSumw[403]=1059, x=402.5, error=32.5423
 fSumw[404]=1043, x=403.5, error=32.2955
 fSumw[405]=1077, x=404.5, error=32.8177
 fSumw[406]=1003, x=405.5, error=31.6702
 fSumw[407]=1045, x=406.5, error=32.3265
 fSumw[408]=1016, x=407.5, error=31.8748
 fSumw[409]=1026, x=408.5, error=32.0312
 fSumw[410]=1034, x=409.5, error=32.1559
 fSumw[411]=966, x=410.5, error=31.0805
 fSumw[412]=977, x=411.5, error=31.257
 fSumw[413]=1084, x=412.5, error=32.9242
 fSumw[414]=1037, x=413.5, error=32.2025
 fSumw[415]=1017, x=414.5, error=31.8904
 fSumw[416]=1010, x=415.5, error=31.7805
 fSumw[417]=967, x=416.5, error=31.0966
 fSumw[418]=974, x=417.5, error=31.209
 fSumw[419]=948, x=418.5, error=30.7896
 fSumw[420]=940, x=419.5, error=30.6594
 fSumw[421]=984, x=420.5, error=31.3688
 fSumw[422]=1046, x=421.5, error=32.3419
 fSumw[423]=896, x=422.5, error=29.9333
 fSumw[424]=933, x=423.5, error=30.545
 fSumw[425]=981, x=424.5, error=31.3209
 fSumw[426]=942, x=425.5, error=30.692
 fSumw[427]=967, x=426.5, error=31.0966
 fSumw[428]=967, x=427.5, error=31.0966
 fSumw[429]=909, x=428.5, error=30.1496
 fSumw[430]=934, x=429.5, error=30.5614
 fSumw[431]=959, x=430.5, error=30.9677
 fSumw[432]=928, x=431.5, error=30.4631
 fSumw[433]=901, x=432.5, error=30.0167
 fSumw[434]=926, x=433.5, error=30.4302
 fSumw[435]=934, x=434.5, error=30.5614
 fSumw[436]=888, x=435.5, error=29.7993
 fSumw[437]=918, x=436.5, error=30.2985
 fSumw[438]=939, x=437.5, error=30.6431
 fSumw[439]=880, x=438.5, error=29.6648
 fSumw[440]=910, x=439.5, error=30.1662
 fSumw[441]=948, x=440.5, error=30.7896
 fSumw[442]=901, x=441.5, error=30.0167
 fSumw[443]=910, x=442.5, error=30.1662
 fSumw[444]=899, x=443.5, error=29.9833
 fSumw[445]=888, x=444.5, error=29.7993
 fSumw[446]=864, x=445.5, error=29.3939
 fSumw[447]=870, x=446.5, error=29.4958
 fSumw[448]=901, x=447.5, error=30.0167
 fSumw[449]=874, x=448.5, error=29.5635
 fSumw[450]=927, x=449.5, error=30.4467
 fSumw[451]=855, x=450.5, error=29.2404
 fSumw[452]=824, x=451.5, error=28.7054
 fSumw[453]=870, x=452.5, error=29.4958
 fSumw[454]=822, x=453.5, error=28.6705
 fSumw[455]=862, x=454.5, error=29.3598
 fSumw[456]=884, x=455.5, error=29.7321
 fSumw[457]=843, x=456.5, error=29.0345
 fSumw[458]=751, x=457.5, error=27.4044
 fSumw[459]=865, x=458.5, error=29.4109
 fSumw[460]=803, x=459.5, error=28.3373
 fSumw[461]=862, x=460.5, error=29.3598
 fSumw[462]=833, x=461.5, error=28.8617
 fSumw[463]=814, x=462.5, error=28.5307
 fSumw[464]=830, x=463.5, error=28.8097
 fSumw[465]=799, x=464.5, error=28.2666
 fSumw[466]=796, x=465.5, error=28.2135
 fSumw[467]=811, x=466.5, error=28.4781
 fSumw[468]=804, x=467.5, error=28.3549
 fSumw[469]=804, x=468.5, error=28.3549
 fSumw[470]=799, x=469.5, error=28.2666
 fSumw[471]=788, x=470.5, error=28.0713
 fSumw[472]=762, x=471.5, error=27.6043
 fSumw[473]=750, x=472.5, error=27.3861
 fSumw[474]=784, x=473.5, error=28
 fSumw[475]=771, x=474.5, error=27.7669
 fSumw[476]=776, x=475.5, error=27.8568
 fSumw[477]=763, x=476.5, error=27.6225
 fSumw[478]=802, x=477.5, error=28.3196
 fSumw[479]=760, x=478.5, error=27.5681
 fSumw[480]=783, x=479.5, error=27.9821
 fSumw[481]=764, x=480.5, error=27.6405
 fSumw[482]=757, x=481.5, error=27.5136
 fSumw[483]=725, x=482.5, error=26.9258
 fSumw[484]=720, x=483.5, error=26.8328
 fSumw[485]=766, x=484.5, error=27.6767
 fSumw[486]=757, x=485.5, error=27.5136
 fSumw[487]=733, x=486.5, error=27.074
 fSumw[488]=773, x=487.5, error=27.8029
 fSumw[489]=749, x=488.5, error=27.3679
 fSumw[490]=711, x=489.5, error=26.6646
 fSumw[491]=680, x=490.5, error=26.0768
 fSumw[492]=739, x=491.5, error=27.1846
 fSumw[493]=765, x=492.5, error=27.6586
 fSumw[494]=733, x=493.5, error=27.074
 fSumw[495]=743, x=494.5, error=27.258
 fSumw[496]=740, x=495.5, error=27.2029
 fSumw[497]=689, x=496.5, error=26.2488
 fSumw[498]=734, x=497.5, error=27.0924
 fSumw[499]=689, x=498.5, error=26.2488
 fSumw[500]=710, x=499.5, error=26.6458
 fSumw[501]=714, x=500.5, error=26.7208
 fSumw[502]=690, x=501.5, error=26.2679
 fSumw[503]=713, x=502.5, error=26.7021
 fSumw[504]=690, x=503.5, error=26.2679
 fSumw[505]=662, x=504.5, error=25.7294
 fSumw[506]=710, x=505.5, error=26.6458
 fSumw[507]=697, x=506.5, error=26.4008
 fSumw[508]=684, x=507.5, error=26.1534
 fSumw[509]=693, x=508.5, error=26.3249
 fSumw[510]=628, x=509.5, error=25.0599
 fSumw[511]=671, x=510.5, error=25.9037
 fSumw[512]=711, x=511.5, error=26.6646
 fSumw[513]=637, x=512.5, error=25.2389
 fSumw[514]=698, x=513.5, error=26.4197
 fSumw[515]=654, x=514.5, error=25.5734
 fSumw[516]=683, x=515.5, error=26.1343
 fSumw[517]=652, x=516.5, error=25.5343
 fSumw[518]=654, x=517.5, error=25.5734
 fSumw[519]=686, x=518.5, error=26.1916
 fSumw[520]=646, x=519.5, error=25.4165
 fSumw[521]=637, x=520.5, error=25.2389
 fSumw[522]=602, x=521.5, error=24.5357
 fSumw[523]=621, x=522.5, error=24.9199
 fSumw[524]=643, x=523.5, error=25.3574
 fSumw[525]=567, x=524.5, error=23.8118
 fSumw[526]=636, x=525.5, error=25.219
 fSumw[527]=653, x=526.5, error=25.5539
 fSumw[528]=606, x=527.5, error=24.6171
 fSumw[529]=580, x=528.5, error=24.0832
 fSumw[530]=617, x=529.5, error=24.8395
 fSumw[531]=595, x=530.5, error=24.3926
 fSumw[532]=592, x=531.5, error=24.3311
 fSumw[533]=583, x=532.5, error=24.1454
 fSumw[534]=613, x=533.5, error=24.7588
 fSumw[535]=571, x=534.5, error=23.8956
 fSumw[536]=586, x=535.5, error=24.2074
 fSumw[537]=617, x=536.5, error=24.8395
 fSumw[538]=640, x=537.5, error=25.2982
 fSumw[539]=561, x=538.5, error=23.6854
 fSumw[540]=573, x=539.5, error=23.9374
 fSumw[541]=593, x=540.5, error=24.3516
 fSumw[542]=604, x=541.5, error=24.5764
 fSumw[543]=616, x=542.5, error=24.8193
 fSumw[544]=616, x=543.5, error=24.8193
 fSumw[545]=570, x=544.5, error=23.8747
 fSumw[546]=548, x=545.5, error=23.4094
 fSumw[547]=530, x=546.5, error=23.0217
 fSumw[548]=553, x=547.5, error=23.516
 fSumw[549]=563, x=548.5, error=23.7276
 fSumw[550]=569, x=549.5, error=23.8537
 fSumw[551]=574, x=550.5, error=23.9583
 fSumw[552]=544, x=551.5, error=23.3238
 fSumw[553]=579, x=552.5, error=24.0624
 fSumw[554]=513, x=553.5, error=22.6495
 fSumw[555]=501, x=554.5, error=22.383
 fSumw[556]=541, x=555.5, error=23.2594
 fSumw[557]=589, x=556.5, error=24.2693
 fSumw[558]=523, x=557.5, error=22.8692
 fSumw[559]=560, x=558.5, error=23.6643
 fSumw[560]=532, x=559.5, error=23.0651
 fSumw[561]=552, x=560.5, error=23.4947
 fSumw[562]=573, x=561.5, error=23.9374
 fSumw[563]=515, x=562.5, error=22.6936
 fSumw[564]=504, x=563.5, error=22.4499
 fSumw[565]=509, x=564.5, error=22.561
 fSumw[566]=504, x=565.5, error=22.4499
 fSumw[567]=514, x=566.5, error=22.6716
 fSumw[568]=489, x=567.5, error=22.1133
 fSumw[569]=520, x=568.5, error=22.8035
 fSumw[570]=511, x=569.5, error=22.6053
 fSumw[571]=495, x=570.5, error=22.2486
 fSumw[572]=507, x=571.5, error=22.5167
 fSumw[573]=523, x=572.5, error=22.8692
 fSumw[574]=473, x=573.5, error=21.7486
 fSumw[575]=487, x=574.5, error=22.0681
 fSumw[576]=503, x=575.5, error=22.4277
 fSumw[577]=495, x=576.5, error=22.2486
 fSumw[578]=564, x=577.5, error=23.7487
 fSumw[579]=498, x=578.5, error=22.3159
 fSumw[580]=473, x=579.5, error=21.7486
 fSumw[581]=489, x=580.5, error=22.1133
 fSumw[582]=504, x=581.5, error=22.4499
 fSumw[583]=496, x=582.5, error=22.2711
 fSumw[584]=497, x=583.5, error=22.2935
 fSumw[585]=458, x=584.5, error=21.4009
 fSumw[586]=495, x=585.5, error=22.2486
 fSumw[587]=500, x=586.5, error=22.3607
 fSumw[588]=465, x=587.5, error=21.5639
 fSumw[589]=467, x=588.5, error=21.6102
 fSumw[590]=449, x=589.5, error=21.1896
 fSumw[591]=490, x=590.5, error=22.1359
 fSumw[592]=472, x=591.5, error=21.7256
 fSumw[593]=471, x=592.5, error=21.7025
 fSumw[594]=439, x=593.5, error=20.9523
 fSumw[595]=451, x=594.5, error=21.2368
 fSumw[596]=463, x=595.5, error=21.5174
 fSumw[597]=425, x=596.5, error=20.6155
 fSumw[598]=473, x=597.5, error=21.7486
 fSumw[599]=445, x=598.5, error=21.095
 fSumw[600]=442, x=599.5, error=21.0238
 fSumw[601]=432, x=600.5, error=20.7846
 fSumw[602]=469, x=601.5, error=21.6564
 fSumw[603]=417, x=602.5, error=20.4206
 fSumw[604]=444, x=603.5, error=21.0713
 fSumw[605]=436, x=604.5, error=20.8806
 fSumw[606]=415, x=605.5, error=20.3715
 fSumw[607]=409, x=606.5, error=20.2237
 fSumw[608]=439, x=607.5, error=20.9523
 fSumw[609]=453, x=608.5, error=21.2838
 fSumw[610]=446, x=609.5, error=21.1187
 fSumw[611]=422, x=610.5, error=20.5426
 fSumw[612]=437, x=611.5, error=20.9045
 fSumw[613]=376, x=612.5, error=19.3907
 fSumw[614]=419, x=613.5, error=20.4695
 fSumw[615]=381, x=614.5, error=19.5192
 fSumw[616]=453, x=615.5, error=21.2838
 fSumw[617]=404, x=616.5, error=20.0998
 fSumw[618]=388, x=617.5, error=19.6977
 fSumw[619]=399, x=618.5, error=19.975
 fSumw[620]=436, x=619.5, error=20.8806
 fSumw[621]=453, x=620.5, error=21.2838
 fSumw[622]=358, x=621.5, error=18.9209
 fSumw[623]=406, x=622.5, error=20.1494
 fSumw[624]=372, x=623.5, error=19.2873
 fSumw[625]=422, x=624.5, error=20.5426
 fSumw[626]=388, x=625.5, error=19.6977
 fSumw[627]=444, x=626.5, error=21.0713
 fSumw[628]=425, x=627.5, error=20.6155
 fSumw[629]=371, x=628.5, error=19.2614
 fSumw[630]=398, x=629.5, error=19.9499
 fSumw[631]=414, x=630.5, error=20.347
 fSumw[632]=393, x=631.5, error=19.8242
 fSumw[633]=380, x=632.5, error=19.4936
 fSumw[634]=380, x=633.5, error=19.4936
 fSumw[635]=403, x=634.5, error=20.0749
 fSumw[636]=422, x=635.5, error=20.5426
 fSumw[637]=351, x=636.5, error=18.735
 fSumw[638]=383, x=637.5, error=19.5704
 fSumw[639]=369, x=638.5, error=19.2094
 fSumw[640]=391, x=639.5, error=19.7737
 fSumw[641]=345, x=640.5, error=18.5742
 fSumw[642]=389, x=641.5, error=19.7231
 fSumw[643]=372, x=642.5, error=19.2873
 fSumw[644]=353, x=643.5, error=18.7883
 fSumw[645]=365, x=644.5, error=19.105
 fSumw[646]=319, x=645.5, error=17.8606
 fSumw[647]=406, x=646.5, error=20.1494
 fSumw[648]=364, x=647.5, error=19.0788
 fSumw[649]=328, x=648.5, error=18.1108
 fSumw[650]=353, x=649.5, error=18.7883
 fSumw[651]=341, x=650.5, error=18.4662
 fSumw[652]=348, x=651.5, error=18.6548
 fSumw[653]=333, x=652.5, error=18.2483
 fSumw[654]=367, x=653.5, error=19.1572
 fSumw[655]=333, x=654.5, error=18.2483
 fSumw[656]=329, x=655.5, error=18.1384
 fSumw[657]=333, x=656.5, error=18.2483
 fSumw[658]=346, x=657.5, error=18.6011
 fSumw[659]=338, x=658.5, error=18.3848
 fSumw[660]=360, x=659.5, error=18.9737
 fSumw[661]=331, x=660.5, error=18.1934
 fSumw[662]=312, x=661.5, error=17.6635
 fSumw[663]=316, x=662.5, error=17.7764
 fSumw[664]=326, x=663.5, error=18.0555
 fSumw[665]=299, x=664.5, error=17.2916
 fSumw[666]=348, x=665.5, error=18.6548
 fSumw[667]=331, x=666.5, error=18.1934
 fSumw[668]=337, x=667.5, error=18.3576
 fSumw[669]=321, x=668.5, error=17.9165
 fSumw[670]=332, x=669.5, error=18.2209
 fSumw[671]=323, x=670.5, error=17.9722
 fSumw[672]=341, x=671.5, error=18.4662
 fSumw[673]=301, x=672.5, error=17.3494
 fSumw[674]=309, x=673.5, error=17.5784
 fSumw[675]=329, x=674.5, error=18.1384
 fSumw[676]=278, x=675.5, error=16.6733
 fSumw[677]=280, x=676.5, error=16.7332
 fSumw[678]=284, x=677.5, error=16.8523
 fSumw[679]=306, x=678.5, error=17.4929
 fSumw[680]=279, x=679.5, error=16.7033
 fSumw[681]=297, x=680.5, error=17.2337
 fSumw[682]=321, x=681.5, error=17.9165
 fSumw[683]=246, x=682.5, error=15.6844
 fSumw[684]=284, x=683.5, error=16.8523
 fSumw[685]=293, x=684.5, error=17.1172
 fSumw[686]=301, x=685.5, error=17.3494
 fSumw[687]=289, x=686.5, error=17
 fSumw[688]=278, x=687.5, error=16.6733
 fSumw[689]=307, x=688.5, error=17.5214
 fSumw[690]=297, x=689.5, error=17.2337
 fSumw[691]=278, x=690.5, error=16.6733
 fSumw[692]=313, x=691.5, error=17.6918
 fSumw[693]=304, x=692.5, error=17.4356
 fSumw[694]=264, x=693.5, error=16.2481
 fSumw[695]=280, x=694.5, error=16.7332
 fSumw[696]=275, x=695.5, error=16.5831
 fSumw[697]=275, x=696.5, error=16.5831
 fSumw[698]=287, x=697.5, error=16.9411
 fSumw[699]=296, x=698.5, error=17.2047
 fSumw[700]=269, x=699.5, error=16.4012
 fSumw[701]=266, x=700.5, error=16.3095
 fSumw[702]=256, x=701.5, error=16
 fSumw[703]=277, x=702.5, error=16.6433
 fSumw[704]=275, x=703.5, error=16.5831
 fSumw[705]=249, x=704.5, error=15.7797
 fSumw[706]=272, x=705.5, error=16.4924
 fSumw[707]=254, x=706.5, error=15.9374
 fSumw[708]=265, x=707.5, error=16.2788
 fSumw[709]=269, x=708.5, error=16.4012
 fSumw[710]=261, x=709.5, error=16.1555
 fSumw[711]=255, x=710.5, error=15.9687
 fSumw[712]=282, x=711.5, error=16.7929
 fSumw[713]=258, x=712.5, error=16.0624
 fSumw[714]=245, x=713.5, error=15.6525
 fSumw[715]=260, x=714.5, error=16.1245
 fSumw[716]=240, x=715.5, error=15.4919
 fSumw[717]=242, x=716.5, error=15.5563
 fSumw[718]=252, x=717.5, error=15.8745
 fSumw[719]=266, x=718.5, error=16.3095
 fSumw[720]=262, x=719.5, error=16.1864
 fSumw[721]=235, x=720.5, error=15.3297
 fSumw[722]=225, x=721.5, error=15
 fSumw[723]=262, x=722.5, error=16.1864
 fSumw[724]=256, x=723.5, error=16
 fSumw[725]=242, x=724.5, error=15.5563
 fSumw[726]=225, x=725.5, error=15
 fSumw[727]=250, x=726.5, error=15.8114
 fSumw[728]=222, x=727.5, error=14.8997
 fSumw[729]=220, x=728.5, error=14.8324
 fSumw[730]=223, x=729.5, error=14.9332
 fSumw[731]=241, x=730.5, error=15.5242
 fSumw[732]=220, x=731.5, error=14.8324
 fSumw[733]=218, x=732.5, error=14.7648
 fSumw[734]=205, x=733.5, error=14.3178
 fSumw[735]=225, x=734.5, error=15
 fSumw[736]=216, x=735.5, error=14.6969
 fSumw[737]=206, x=736.5, error=14.3527
 fSumw[738]=236, x=737.5, error=15.3623
 fSumw[739]=223, x=738.5, error=14.9332
 fSumw[740]=235, x=739.5, error=15.3297
 fSumw[741]=240, x=740.5, error=15.4919
 fSumw[742]=238, x=741.5, error=15.4272
 fSumw[743]=207, x=742.5, error=14.3875
 fSumw[744]=206, x=743.5, error=14.3527
 fSumw[745]=199, x=744.5, error=14.1067
 fSumw[746]=206, x=745.5, error=14.3527
 fSumw[747]=212, x=746.5, error=14.5602
 fSumw[748]=217, x=747.5, error=14.7309
 fSumw[749]=192, x=748.5, error=13.8564
 fSumw[750]=210, x=749.5, error=14.4914
 fSumw[751]=215, x=750.5, error=14.6629
 fSumw[752]=194, x=751.5, error=13.9284
 fSumw[753]=217, x=752.5, error=14.7309
 fSumw[754]=194, x=753.5, error=13.9284
 fSumw[755]=199, x=754.5, error=14.1067
 fSumw[756]=186, x=755.5, error=13.6382
 fSumw[757]=193, x=756.5, error=13.8924
 fSumw[758]=201, x=757.5, error=14.1774
 fSumw[759]=215, x=758.5, error=14.6629
 fSumw[760]=188, x=759.5, error=13.7113
 fSumw[761]=169, x=760.5, error=13
 fSumw[762]=227, x=761.5, error=15.0665
 fSumw[763]=188, x=762.5, error=13.7113
 fSumw[764]=186, x=763.5, error=13.6382
 fSumw[765]=189, x=764.5, error=13.7477
 fSumw[766]=178, x=765.5, error=13.3417
 fSumw[767]=153, x=766.5, error=12.3693
 fSumw[768]=190, x=767.5, error=13.784
 fSumw[769]=218, x=768.5, error=14.7648
 fSumw[770]=192, x=769.5, error=13.8564
 fSumw[771]=193, x=770.5, error=13.8924
 fSumw[772]=172, x=771.5, error=13.1149
 fSumw[773]=175, x=772.5, error=13.2288
 fSumw[774]=220, x=773.5, error=14.8324
 fSumw[775]=172, x=774.5, error=13.1149
 fSumw[776]=206, x=775.5, error=14.3527
 fSumw[777]=178, x=776.5, error=13.3417
 fSumw[778]=159, x=777.5, error=12.6095
 fSumw[779]=166, x=778.5, error=12.8841
 fSumw[780]=144, x=779.5, error=12
 fSumw[781]=170, x=780.5, error=13.0384
 fSumw[782]=175, x=781.5, error=13.2288
 fSumw[783]=171, x=782.5, error=13.0767
 fSumw[784]=177, x=783.5, error=13.3041
 fSumw[785]=170, x=784.5, error=13.0384
 fSumw[786]=179, x=785.5, error=13.3791
 fSumw[787]=169, x=786.5, error=13
 fSumw[788]=134, x=787.5, error=11.5758
 fSumw[789]=162, x=788.5, error=12.7279
 fSumw[790]=192, x=789.5, error=13.8564
 fSumw[791]=166, x=790.5, error=12.8841
 fSumw[792]=139, x=791.5, error=11.7898
 fSumw[793]=156, x=792.5, error=12.49
 fSumw[794]=157, x=793.5, error=12.53
 fSumw[795]=149, x=794.5, error=12.2066
 fSumw[796]=145, x=795.5, error=12.0416
 fSumw[797]=133, x=796.5, error=11.5326
 fSumw[798]=161, x=797.5, error=12.6886
 fSumw[799]=169, x=798.5, error=13
 fSumw[800]=153, x=799.5, error=12.3693
 fSumw[801]=144, x=800.5, error=12
 fSumw[802]=133, x=801.5, error=11.5326
 fSumw[803]=162, x=802.5, error=12.7279
 fSumw[804]=171, x=803.5, error=13.0767
 fSumw[805]=153, x=804.5, error=12.3693
 fSumw[806]=154, x=805.5, error=12.4097
 fSumw[807]=139, x=806.5, error=11.7898
 fSumw[808]=134, x=807.5, error=11.5758
 fSumw[809]=151, x=808.5, error=12.2882
 fSumw[810]=119, x=809.5, error=10.9087
 fSumw[811]=163, x=810.5, error=12.7671
 fSumw[812]=161, x=811.5, error=12.6886
 fSumw[813]=128, x=812.5, error=11.3137
 fSumw[814]=129, x=813.5, error=11.3578
 fSumw[815]=123, x=814.5, error=11.0905
 fSumw[816]=151, x=815.5, error=12.2882
 fSumw[817]=160, x=816.5, error=12.6491
 fSumw[818]=137, x=817.5, error=11.7047
 fSumw[819]=150, x=818.5, error=12.2474
 fSumw[820]=119, x=819.5, error=10.9087
 fSumw[821]=137, x=820.5, error=11.7047
 fSumw[822]=117, x=821.5, error=10.8167
 fSumw[823]=147, x=822.5, error=12.1244
 fSumw[824]=117, x=823.5, error=10.8167
 fSumw[825]=106, x=824.5, error=10.2956
 fSumw[826]=137, x=825.5, error=11.7047
 fSumw[827]=124, x=826.5, error=11.1355
 fSumw[828]=146, x=827.5, error=12.083
 fSumw[829]=127, x=828.5, error=11.2694
 fSumw[830]=122, x=829.5, error=11.0454
 fSumw[831]=129, x=830.5, error=11.3578
 fSumw[832]=103, x=831.5, error=10.1489
 fSumw[833]=135, x=832.5, error=11.619
 fSumw[834]=126, x=833.5, error=11.225
 fSumw[835]=114, x=834.5, error=10.6771
 fSumw[836]=111, x=835.5, error=10.5357
 fSumw[837]=109, x=836.5, error=10.4403
 fSumw[838]=94, x=837.5, error=9.69536
 fSumw[839]=131, x=838.5, error=11.4455
 fSumw[840]=105, x=839.5, error=10.247
 fSumw[841]=102, x=840.5, error=10.0995
 fSumw[842]=127, x=841.5, error=11.2694
 fSumw[843]=103, x=842.5, error=10.1489
 fSumw[844]=106, x=843.5, error=10.2956
 fSumw[845]=103, x=844.5, error=10.1489
 fSumw[846]=97, x=845.5, error=9.84886
 fSumw[847]=106, x=846.5, error=10.2956
 fSumw[848]=110, x=847.5, error=10.4881
 fSumw[849]=91, x=848.5, error=9.53939
 fSumw[850]=106, x=849.5, error=10.2956
 fSumw[851]=91, x=850.5, error=9.53939
 fSumw[852]=91, x=851.5, error=9.53939
 fSumw[853]=94, x=852.5, error=9.69536
 fSumw[854]=112, x=853.5, error=10.583
 fSumw[855]=73, x=854.5, error=8.544
 fSumw[856]=94, x=855.5, error=9.69536
 fSumw[857]=106, x=856.5, error=10.2956
 fSumw[858]=95, x=857.5, error=9.74679
 fSumw[859]=88, x=858.5, error=9.38083
 fSumw[860]=88, x=859.5, error=9.38083
 fSumw[861]=95, x=860.5, error=9.74679
 fSumw[862]=95, x=861.5, error=9.74679
 fSumw[863]=86, x=862.5, error=9.27362
 fSumw[864]=91, x=863.5, error=9.53939
 fSumw[865]=83, x=864.5, error=9.11043
 fSumw[866]=66, x=865.5, error=8.12404
 fSumw[867]=89, x=866.5, error=9.43398
 fSumw[868]=83, x=867.5, error=9.11043
 fSumw[869]=80, x=868.5, error=8.94427
 fSumw[870]=94, x=869.5, error=9.69536
 fSumw[871]=80, x=870.5, error=8.94427
 fSumw[872]=89, x=871.5, error=9.43398
 fSumw[873]=82, x=872.5, error=9.05539
 fSumw[874]=87, x=873.5, error=9.32738
 fSumw[875]=95, x=874.5, error=9.74679
 fSumw[876]=92, x=875.5, error=9.59166
 fSumw[877]=93, x=876.5, error=9.64365
 fSumw[878]=76, x=877.5, error=8.7178
 fSumw[879]=67, x=878.5, error=8.18535
 fSumw[880]=99, x=879.5, error=9.94987
 fSumw[881]=73, x=880.5, error=8.544
 fSumw[882]=71, x=881.5, error=8.42615
 fSumw[883]=66, x=882.5, error=8.12404
 fSumw[884]=68, x=883.5, error=8.24621
 fSumw[885]=71, x=884.5, error=8.42615
 fSumw[886]=57, x=885.5, error=7.54983
 fSumw[887]=70, x=886.5, error=8.3666
 fSumw[888]=57, x=887.5, error=7.54983
 fSumw[889]=71, x=888.5, error=8.42615
 fSumw[890]=72, x=889.5, error=8.48528
 fSumw[891]=78, x=890.5, error=8.83176
 fSumw[892]=72, x=891.5, error=8.48528
 fSumw[893]=57, x=892.5, error=7.54983
 fSumw[894]=57, x=893.5, error=7.54983
 fSumw[895]=77, x=894.5, error=8.77496
 fSumw[896]=68, x=895.5, error=8.24621
 fSumw[897]=65, x=896.5, error=8.06226
 fSumw[898]=80, x=897.5, error=8.94427
 fSumw[899]=49, x=898.5, error=7
 fSumw[900]=72, x=899.5, error=8.48528
 fSumw[901]=65, x=900.5, error=8.06226
 fSumw[902]=58, x=901.5, error=7.61577
 fSumw[903]=46, x=902.5, error=6.78233
 fSumw[904]=75, x=903.5, error=8.66025
 fSumw[905]=45, x=904.5, error=6.7082
 fSumw[906]=56, x=905.5, error=7.48331
 fSumw[907]=70, x=906.5, error=8.3666
 fSumw[908]=59, x=907.5, error=7.68115
 fSumw[909]=56, x=908.5, error=7.48331
 fSumw[910]=57, x=909.5, error=7.54983
 fSumw[911]=54, x=910.5, error=7.34847
 fSumw[912]=52, x=911.5, error=7.2111
 fSumw[913]=58, x=912.5, error=7.61577
 fSumw[914]=67, x=913.5, error=8.18535
 fSumw[915]=53, x=914.5, error=7.28011
 fSumw[916]=46, x=915.5, error=6.78233
 fSumw[917]=53, x=916.5, error=7.28011
 fSumw[918]=47, x=917.5, error=6.85565
 fSumw[919]=40, x=918.5, error=6.32456
 fSumw[920]=42, x=919.5, error=6.48074
 fSumw[921]=47, x=920.5, error=6.85565
 fSumw[922]=48, x=921.5, error=6.9282
 fSumw[923]=48, x=922.5, error=6.9282
 fSumw[924]=67, x=923.5, error=8.18535
 fSumw[925]=53, x=924.5, error=7.28011
 fSumw[926]=51, x=925.5, error=7.14143
 fSumw[927]=47, x=926.5, error=6.85565
 fSumw[928]=54, x=927.5, error=7.34847
 fSumw[929]=49, x=928.5, error=7
 fSumw[930]=53, x=929.5, error=7.28011
 fSumw[931]=54, x=930.5, error=7.34847
 fSumw[932]=57, x=931.5, error=7.54983
 fSumw[933]=45, x=932.5, error=6.7082
 fSumw[934]=53, x=933.5, error=7.28011
 fSumw[935]=53, x=934.5, error=7.28011
 fSumw[936]=46, x=935.5, error=6.78233
 fSumw[937]=46, x=936.5, error=6.78233
 fSumw[938]=56, x=937.5, error=7.48331
 fSumw[939]=48, x=938.5, error=6.9282
 fSumw[940]=45, x=939.5, error=6.7082
 fSumw[941]=62, x=940.5, error=7.87401
 fSumw[942]=41, x=941.5, error=6.40312
 fSumw[943]=46, x=942.5, error=6.78233
 fSumw[944]=41, x=943.5, error=6.40312
 fSumw[945]=53, x=944.5, error=7.28011
 fSumw[946]=50, x=945.5, error=7.07107
 fSumw[947]=45, x=946.5, error=6.7082
 fSumw[948]=54, x=947.5, error=7.34847
 fSumw[949]=39, x=948.5, error=6.245
 fSumw[950]=40, x=949.5, error=6.32456
 fSumw[951]=43, x=950.5, error=6.55744
 fSumw[952]=60, x=951.5, error=7.74597
 fSumw[953]=36, x=952.5, error=6
 fSumw[954]=53, x=953.5, error=7.28011
 fSumw[955]=48, x=954.5, error=6.9282
 fSumw[956]=38, x=955.5, error=6.16441
 fSumw[957]=34, x=956.5, error=5.83095
 fSumw[958]=42, x=957.5, error=6.48074
 fSumw[959]=39, x=958.5, error=6.245
 fSumw[960]=48, x=959.5, error=6.9282
 fSumw[961]=50, x=960.5, error=7.07107
 fSumw[962]=41, x=961.5, error=6.40312
 fSumw[963]=43, x=962.5, error=6.55744
 fSumw[964]=51, x=963.5, error=7.14143
 fSumw[965]=44, x=964.5, error=6.63325
 fSumw[966]=51, x=965.5, error=7.14143
 fSumw[967]=50, x=966.5, error=7.07107
 fSumw[968]=42, x=967.5, error=6.48074
 fSumw[969]=46, x=968.5, error=6.78233
 fSumw[970]=56, x=969.5, error=7.48331
 fSumw[971]=41, x=970.5, error=6.40312
 fSumw[972]=50, x=971.5, error=7.07107
 fSumw[973]=63, x=972.5, error=7.93725
 fSumw[974]=52, x=973.5, error=7.2111
 fSumw[975]=48, x=974.5, error=6.9282
 fSumw[976]=54, x=975.5, error=7.34847
 fSumw[977]=53, x=976.5, error=7.28011
 fSumw[978]=46, x=977.5, error=6.78233
 fSumw[979]=40, x=978.5, error=6.32456
 fSumw[980]=41, x=979.5, error=6.40312
 fSumw[981]=50, x=980.5, error=7.07107
 fSumw[982]=40, x=981.5, error=6.32456
 fSumw[983]=46, x=982.5, error=6.78233
 fSumw[984]=42, x=983.5, error=6.48074
 fSumw[985]=34, x=984.5, error=5.83095
 fSumw[986]=54, x=985.5, error=7.34847
 fSumw[987]=37, x=986.5, error=6.08276
 fSumw[988]=34, x=987.5, error=5.83095
 fSumw[989]=19, x=988.5, error=4.3589
 fSumw[990]=27, x=989.5, error=5.19615
 fSumw[991]=16, x=990.5, error=4
 fSumw[992]=5, x=991.5, error=2.23607
 fSumw[993]=11, x=992.5, error=3.31662
 fSumw[994]=4, x=993.5, error=2
 fSumw[995]=0, x=994.5, error=0
 fSumw[996]=2, x=995.5, error=1.41421
 fSumw[997]=0, x=996.5, error=0
 fSumw[998]=0, x=997.5, error=0
 fSumw[999]=1, x=998.5, error=1
 fSumw[1000]=15651, x=999.5, error=125.104
 fSumw[1001]=28835, x=1000.5, error=169.809
 fSumw[1002]=0, x=1001.5, error=0
 fSumw[1003]=0, x=1002.5, error=0
 fSumw[1004]=0, x=1003.5, error=0
 fSumw[1005]=0, x=1004.5, error=0
 fSumw[1006]=0, x=1005.5, error=0
 fSumw[1007]=0, x=1006.5, error=0
 fSumw[1008]=0, x=1007.5, error=0
 fSumw[1009]=0, x=1008.5, error=0
 fSumw[1010]=0, x=1009.5, error=0
 fSumw[1011]=0, x=1010.5, error=0
 fSumw[1012]=0, x=1011.5, error=0
 fSumw[1013]=0, x=1012.5, error=0
 fSumw[1014]=0, x=1013.5, error=0
 fSumw[1015]=0, x=1014.5, error=0
 fSumw[1016]=0, x=1015.5, error=0
 fSumw[1017]=0, x=1016.5, error=0
 fSumw[1018]=0, x=1017.5, error=0
 fSumw[1019]=0, x=1018.5, error=0
 fSumw[1020]=0, x=1019.5, error=0
 fSumw[1021]=0, x=1020.5, error=0
 fSumw[1022]=0, x=1021.5, error=0
 fSumw[1023]=0, x=1022.5, error=0
 fSumw[1024]=0, x=1023.5, error=0
 fSumw[1025]=0, x=1024.5, error=0
 fSumw[1026]=0, x=1025.5, error=0
 fSumw[1027]=0, x=1026.5, error=0
 fSumw[1028]=0, x=1027.5, error=0
 fSumw[1029]=0, x=1028.5, error=0
 fSumw[1030]=0, x=1029.5, error=0
 fSumw[1031]=0, x=1030.5, error=0
 fSumw[1032]=0, x=1031.5, error=0
 fSumw[1033]=0, x=1032.5, error=0
 fSumw[1034]=0, x=1033.5, error=0
 fSumw[1035]=0, x=1034.5, error=0
 fSumw[1036]=0, x=1035.5, error=0
 fSumw[1037]=0, x=1036.5, error=0
 fSumw[1038]=0, x=1037.5, error=0
 fSumw[1039]=0, x=1038.5, error=0
 fSumw[1040]=0, x=1039.5, error=0
 fSumw[1041]=0, x=1040.5, error=0
 fSumw[1042]=0, x=1041.5, error=0
 fSumw[1043]=0, x=1042.5, error=0
 fSumw[1044]=0, x=1043.5, error=0
 fSumw[1045]=0, x=1044.5, error=0
 fSumw[1046]=0, x=1045.5, error=0
 fSumw[1047]=0, x=1046.5, error=0
 fSumw[1048]=0, x=1047.5, error=0
 fSumw[1049]=0, x=1048.5, error=0
 fSumw[1050]=0, x=1049.5, error=0
 fSumw[1051]=0, x=1050.5, error=0
 fSumw[1052]=0, x=1051.5, error=0
 fSumw[1053]=0, x=1052.5, error=0
 fSumw[1054]=0, x=1053.5, error=0
 fSumw[1055]=0, x=1054.5, error=0
 fSumw[1056]=0, x=1055.5, error=0
 fSumw[1057]=0, x=1056.5, error=0
 fSumw[1058]=0, x=1057.5, error=0
 fSumw[1059]=0, x=1058.5, error=0
 fSumw[1060]=0, x=1059.5, error=0
 fSumw[1061]=0, x=1060.5, error=0
 fSumw[1062]=0, x=1061.5, error=0
 fSumw[1063]=0, x=1062.5, error=0
 fSumw[1064]=0, x=1063.5, error=0
 fSumw[1065]=0, x=1064.5, error=0
 fSumw[1066]=0, x=1065.5, error=0
 fSumw[1067]=0, x=1066.5, error=0
 fSumw[1068]=0, x=1067.5, error=0
 fSumw[1069]=0, x=1068.5, error=0
 fSumw[1070]=0, x=1069.5, error=0
 fSumw[1071]=0, x=1070.5, error=0
 fSumw[1072]=0, x=1071.5, error=0
 fSumw[1073]=0, x=1072.5, error=0
 fSumw[1074]=0, x=1073.5, error=0
 fSumw[1075]=0, x=1074.5, error=0
 fSumw[1076]=0, x=1075.5, error=0
 fSumw[1077]=0, x=1076.5, error=0
 fSumw[1078]=0, x=1077.5, error=0
 fSumw[1079]=0, x=1078.5, error=0
 fSumw[1080]=0, x=1079.5, error=0
 fSumw[1081]=0, x=1080.5, error=0
 fSumw[1082]=0, x=1081.5, error=0
 fSumw[1083]=0, x=1082.5, error=0
 fSumw[1084]=0, x=1083.5, error=0
 fSumw[1085]=0, x=1084.5, error=0
 fSumw[1086]=0, x=1085.5, error=0
 fSumw[1087]=0, x=1086.5, error=0
 fSumw[1088]=0, x=1087.5, error=0
 fSumw[1089]=0, x=1088.5, error=0
 fSumw[1090]=0, x=1089.5, error=0
 fSumw[1091]=0, x=1090.5, error=0
 fSumw[1092]=0, x=1091.5, error=0
 fSumw[1093]=0, x=1092.5, error=0
 fSumw[1094]=0, x=1093.5, error=0
 fSumw[1095]=0, x=1094.5, error=0
 fSumw[1096]=0, x=1095.5, error=0
 fSumw[1097]=0, x=1096.5, error=0
 fSumw[1098]=0, x=1097.5, error=0
 fSumw[1099]=0, x=1098.5, error=0
 fSumw[1100]=0, x=1099.5, error=0
 fSumw[1101]=0, x=1100.5, error=0
 fSumw[1102]=0, x=1101.5, error=0
 fSumw[1103]=0, x=1102.5, error=0
 fSumw[1104]=0, x=1103.5, error=0
 fSumw[1105]=0, x=1104.5, error=0
 fSumw[1106]=0, x=1105.5, error=0
 fSumw[1107]=0, x=1106.5, error=0
 fSumw[1108]=0, x=1107.5, error=0
 fSumw[1109]=0, x=1108.5, error=0
 fSumw[1110]=0, x=1109.5, error=0
 fSumw[1111]=0, x=1110.5, error=0
 fSumw[1112]=0, x=1111.5, error=0
 fSumw[1113]=0, x=1112.5, error=0
 fSumw[1114]=0, x=1113.5, error=0
 fSumw[1115]=0, x=1114.5, error=0
 fSumw[1116]=0, x=1115.5, error=0
 fSumw[1117]=0, x=1116.5, error=0
 fSumw[1118]=0, x=1117.5, error=0
 fSumw[1119]=0, x=1118.5, error=0
 fSumw[1120]=0, x=1119.5, error=0
 fSumw[1121]=0, x=1120.5, error=0
 fSumw[1122]=0, x=1121.5, error=0
 fSumw[1123]=0, x=1122.5, error=0
 fSumw[1124]=0, x=1123.5, error=0
 fSumw[1125]=0, x=1124.5, error=0
 fSumw[1126]=0, x=1125.5, error=0
 fSumw[1127]=0, x=1126.5, error=0
 fSumw[1128]=0, x=1127.5, error=0
 fSumw[1129]=0, x=1128.5, error=0
 fSumw[1130]=0, x=1129.5, error=0
 fSumw[1131]=0, x=1130.5, error=0
 fSumw[1132]=0, x=1131.5, error=0
 fSumw[1133]=0, x=1132.5, error=0
 fSumw[1134]=0, x=1133.5, error=0
 fSumw[1135]=0, x=1134.5, error=0
 fSumw[1136]=0, x=1135.5, error=0
 fSumw[1137]=0, x=1136.5, error=0
 fSumw[1138]=0, x=1137.5, error=0
 fSumw[1139]=0, x=1138.5, error=0
 fSumw[1140]=0, x=1139.5, error=0
 fSumw[1141]=0, x=1140.5, error=0
 fSumw[1142]=0, x=1141.5, error=0
 fSumw[1143]=0, x=1142.5, error=0
 fSumw[1144]=0, x=1143.5, error=0
 fSumw[1145]=0, x=1144.5, error=0
 fSumw[1146]=0, x=1145.5, error=0
 fSumw[1147]=0, x=1146.5, error=0
 fSumw[1148]=0, x=1147.5, error=0
 fSumw[1149]=0, x=1148.5, error=0
 fSumw[1150]=0, x=1149.5, error=0
 fSumw[1151]=0, x=1150.5, error=0
 fSumw[1152]=0, x=1151.5, error=0
 fSumw[1153]=0, x=1152.5, error=0
 fSumw[1154]=0, x=1153.5, error=0
 fSumw[1155]=0, x=1154.5, error=0
 fSumw[1156]=0, x=1155.5, error=0
 fSumw[1157]=0, x=1156.5, error=0
 fSumw[1158]=0, x=1157.5, error=0
 fSumw[1159]=0, x=1158.5, error=0
 fSumw[1160]=0, x=1159.5, error=0
 fSumw[1161]=0, x=1160.5, error=0
 fSumw[1162]=0, x=1161.5, error=0
 fSumw[1163]=0, x=1162.5, error=0
 fSumw[1164]=0, x=1163.5, error=0
 fSumw[1165]=0, x=1164.5, error=0
 fSumw[1166]=0, x=1165.5, error=0
 fSumw[1167]=0, x=1166.5, error=0
 fSumw[1168]=0, x=1167.5, error=0
 fSumw[1169]=0, x=1168.5, error=0
 fSumw[1170]=0, x=1169.5, error=0
 fSumw[1171]=0, x=1170.5, error=0
 fSumw[1172]=0, x=1171.5, error=0
 fSumw[1173]=0, x=1172.5, error=0
 fSumw[1174]=0, x=1173.5, error=0
 fSumw[1175]=0, x=1174.5, error=0
 fSumw[1176]=0, x=1175.5, error=0
 fSumw[1177]=0, x=1176.5, error=0
 fSumw[1178]=0, x=1177.5, error=0
 fSumw[1179]=0, x=1178.5, error=0
 fSumw[1180]=0, x=1179.5, error=0
 fSumw[1181]=0, x=1180.5, error=0
 fSumw[1182]=0, x=1181.5, error=0
 fSumw[1183]=0, x=1182.5, error=0
 fSumw[1184]=0, x=1183.5, error=0
 fSumw[1185]=0, x=1184.5, error=0
 fSumw[1186]=0, x=1185.5, error=0
 fSumw[1187]=0, x=1186.5, error=0
 fSumw[1188]=0, x=1187.5, error=0
 fSumw[1189]=0, x=1188.5, error=0
 fSumw[1190]=0, x=1189.5, error=0
 fSumw[1191]=0, x=1190.5, error=0
 fSumw[1192]=0, x=1191.5, error=0
 fSumw[1193]=0, x=1192.5, error=0
 fSumw[1194]=0, x=1193.5, error=0
 fSumw[1195]=0, x=1194.5, error=0
 fSumw[1196]=0, x=1195.5, error=0
 fSumw[1197]=0, x=1196.5, error=0
 fSumw[1198]=0, x=1197.5, error=0
 fSumw[1199]=0, x=1198.5, error=0
 fSumw[1200]=0, x=1199.5, error=0
 fSumw[1201]=0, x=1200.5, error=0
