\relax 
\providecommand\hyper@newdestlabel[2]{}
\@writefile{toc}{\contentsline {section}{\numberline {2}Decadimento del positronio}{19}{section.2}}
\@writefile{toc}{\contentsline {subsection}{\numberline {2.1}Apparato sperimentale}{20}{subsection.2.1}}
\newlabel{29@xvr}{{}{20}{Apparato sperimentale}{subsection.2.1}{}}
\newlabel{29@vr}{{}{20}{Apparato sperimentale}{subsection.2.1}{}}
\@writefile{toc}{\contentsline {subsubsection}{\numberline {2.1.1}Sorgente}{20}{subsubsection.2.1.1}}
\@writefile{lof}{\contentsline {figure}{\numberline {17}{\ignorespaces Catena elettronica per la misura della vita media del positronio.\relax }}{21}{figure.caption.21}}
\newlabel{fig:vita_media_positronio}{{17}{21}{Catena elettronica per la misura della vita media del positronio.\relax }{figure.caption.21}{}}
\@writefile{lof}{\contentsline {figure}{\numberline {18}{\ignorespaces Decadimento del Sodio\relax }}{21}{figure.caption.22}}
\newlabel{fig:deca_sodio}{{18}{21}{Decadimento del Sodio\relax }{figure.caption.22}{}}
\newlabel{attivita}{{9}{21}{Sorgente}{equation.2.9}{}}
\newlabel{30@xvr}{{}{22}{Sorgente}{equation.2.9}{}}
\newlabel{30@vr}{{}{22}{Sorgente}{equation.2.9}{}}
\@writefile{lof}{\contentsline {figure}{\numberline {19}{\ignorespaces Decadimento del cobalto.\relax }}{22}{figure.caption.23}}
\newlabel{fig:deca_cobalto}{{19}{22}{Decadimento del cobalto.\relax }{figure.caption.23}{}}
\@writefile{toc}{\contentsline {subsubsection}{\numberline {2.1.2}Rivelatori a scintillazione e fotomoltiplicatori}{22}{subsubsection.2.1.2}}
\@writefile{toc}{\contentsline {subsubsection}{\numberline {2.1.3}CFD}{23}{subsubsection.2.1.3}}
\newlabel{31@xvr}{{}{23}{CFD}{subsubsection.2.1.3}{}}
\newlabel{31@vr}{{}{23}{CFD}{subsubsection.2.1.3}{}}
\@writefile{lof}{\contentsline {figure}{\numberline {20}{\ignorespaces Principio di funzionamento di un CFD.\relax }}{23}{figure.caption.24}}
\newlabel{fig:CFD}{{20}{23}{Principio di funzionamento di un CFD.\relax }{figure.caption.24}{}}
\@writefile{toc}{\contentsline {subsubsection}{\numberline {2.1.4}TAC e MCA}{23}{subsubsection.2.1.4}}
\@writefile{toc}{\contentsline {subsection}{\numberline {2.2}Esperimento}{24}{subsection.2.2}}
\@writefile{toc}{\contentsline {subsubsection}{\numberline {2.2.1}Impostazione delle soglie}{24}{subsubsection.2.2.1}}
\@writefile{lof}{\contentsline {figure}{\numberline {21}{\ignorespaces Collegamenti delle unit\IeC {\`a} della catena elettronica per l'impostazione delle soglie.\relax }}{24}{figure.caption.25}}
\newlabel{fig:catena}{{21}{24}{Collegamenti delle unità della catena elettronica per l'impostazione delle soglie.\relax }{figure.caption.25}{}}
\newlabel{32@xvr}{{}{24}{Impostazione delle soglie}{figure.caption.25}{}}
\newlabel{32@vr}{{}{24}{Impostazione delle soglie}{figure.caption.25}{}}
\newlabel{33@xvr}{{}{24}{Impostazione delle soglie}{figure.caption.25}{}}
\newlabel{33@vr}{{}{24}{Impostazione delle soglie}{figure.caption.25}{}}
\@writefile{lof}{\contentsline {figure}{\numberline {22}{\ignorespaces Spettro ottenuto da rivelatore sottile.\relax }}{25}{figure.caption.26}}
\newlabel{plot:rivelatore_sottile2}{{22}{25}{Spettro ottenuto da rivelatore sottile.\relax }{figure.caption.26}{}}
\@writefile{lof}{\contentsline {figure}{\numberline {23}{\ignorespaces Spettro ottenuto da rivelatore spesso.\relax }}{25}{figure.caption.27}}
\newlabel{plot:rivelatore_spesso}{{23}{25}{Spettro ottenuto da rivelatore spesso.\relax }{figure.caption.27}{}}
\@writefile{toc}{\contentsline {subsubsection}{\numberline {2.2.2}Calibrazione Temporale con sorgente di cobalto}{26}{subsubsection.2.2.2}}
\newlabel{34@xvr}{{}{26}{Calibrazione Temporale con sorgente di cobalto}{subsubsection.2.2.2}{}}
\newlabel{34@vr}{{}{26}{Calibrazione Temporale con sorgente di cobalto}{subsubsection.2.2.2}{}}
\@writefile{lof}{\contentsline {figure}{\numberline {24}{\ignorespaces Catena elettronica per la calibrazione temporale con $^{60}Co$.\relax }}{26}{figure.caption.28}}
\newlabel{fig:calibrazione_cobalto}{{24}{26}{Catena elettronica per la calibrazione temporale con $^{60}Co$.\relax }{figure.caption.28}{}}
\newlabel{35@xvr}{{}{26}{Calibrazione Temporale con sorgente di cobalto}{figure.caption.28}{}}
\newlabel{35@vr}{{}{26}{Calibrazione Temporale con sorgente di cobalto}{figure.caption.28}{}}
\@writefile{lof}{\contentsline {figure}{\numberline {25}{\ignorespaces Fit gaussiani per i $\gamma $ del cobalto con ritardi di \SI {0}{ns}, \SI {5}{ns}, \SI {9}{ns}, \SI {13}{ns}, \SI {17}{ns}.\relax }}{26}{figure.caption.29}}
\newlabel{plot:cobalto_gaus}{{25}{26}{Fit gaussiani per i $\gamma $ del cobalto con ritardi di \SI {0}{ns}, \SI {5}{ns}, \SI {9}{ns}, \SI {13}{ns}, \SI {17}{ns}.\relax }{figure.caption.29}{}}
\newlabel{36@xvr}{{}{27}{Calibrazione Temporale con sorgente di cobalto}{figure.caption.29}{}}
\newlabel{36@vr}{{}{27}{Calibrazione Temporale con sorgente di cobalto}{figure.caption.29}{}}
\newlabel{retta_calibrazione}{{10}{27}{Calibrazione Temporale con sorgente di cobalto}{equation.2.10}{}}
\@writefile{lof}{\contentsline {figure}{\numberline {26}{\ignorespaces Retta di calibrazione canali-tempo con sorgente di cobalto.\relax }}{27}{figure.caption.30}}
\newlabel{plot:cobalto_fit}{{26}{27}{Retta di calibrazione canali-tempo con sorgente di cobalto.\relax }{figure.caption.30}{}}
\@writefile{toc}{\contentsline {subsubsection}{\numberline {2.2.3}Analisi Dati}{27}{subsubsection.2.2.3}}
\newlabel{37@xvr}{{}{27}{Analisi Dati}{subsubsection.2.2.3}{}}
\newlabel{37@vr}{{}{27}{Analisi Dati}{subsubsection.2.2.3}{}}
\newlabel{38@xvr}{{}{27}{Analisi Dati}{subsubsection.2.2.3}{}}
\newlabel{38@vr}{{}{27}{Analisi Dati}{subsubsection.2.2.3}{}}
\newlabel{eq:fit}{{11}{27}{Analisi Dati}{equation.2.11}{}}
\newlabel{39@xvr}{{}{27}{Analisi Dati}{equation.2.11}{}}
\newlabel{39@vr}{{}{27}{Analisi Dati}{equation.2.11}{}}
\@writefile{lof}{\contentsline {figure}{\numberline {27}{\ignorespaces Nel primo grafico \IeC {\`e} presentato il fit dello spettro temporale del positronio, e nel secondo \IeC {\`e} stato raffigurato in scala logaritmica.\relax }}{29}{figure.caption.31}}
\newlabel{fig:positronio}{{27}{29}{Nel primo grafico è presentato il fit dello spettro temporale del positronio, e nel secondo è stato raffigurato in scala logaritmica.\relax }{figure.caption.31}{}}
\@setckpt{Positronio/Positronio}{
\setcounter{page}{30}
\setcounter{equation}{11}
\setcounter{enumi}{0}
\setcounter{enumii}{0}
\setcounter{enumiii}{0}
\setcounter{enumiv}{0}
\setcounter{footnote}{2}
\setcounter{mpfootnote}{0}
\setcounter{part}{0}
\setcounter{section}{2}
\setcounter{subsection}{2}
\setcounter{subsubsection}{3}
\setcounter{paragraph}{0}
\setcounter{subparagraph}{0}
\setcounter{figure}{27}
\setcounter{table}{3}
\setcounter{@pps}{0}
\setcounter{@ppsavesec}{0}
\setcounter{@ppsaveapp}{0}
\setcounter{parentequation}{0}
\setcounter{AM@survey}{0}
\setcounter{float@type}{8}
\setcounter{ContinuedFloat}{0}
\setcounter{blindtext}{1}
\setcounter{Blindtext}{5}
\setcounter{blind@countparstart}{0}
\setcounter{blindlist}{0}
\setcounter{blindlistlevel}{0}
\setcounter{blindlist@level}{0}
\setcounter{blind@listcount}{0}
\setcounter{blind@levelcount}{0}
\setcounter{blind@randomcount}{0}
\setcounter{blind@randommax}{0}
\setcounter{blind@pangramcount}{0}
\setcounter{blind@pangrammax}{0}
\setcounter{LT@tables}{0}
\setcounter{LT@chunks}{0}
\setcounter{r@tfl@t}{0}
\setcounter{subfigure}{0}
\setcounter{lofdepth}{1}
\setcounter{subtable}{0}
\setcounter{lotdepth}{1}
\setcounter{lstnumber}{1}
\setcounter{vrcnt}{39}
\setcounter{Item}{0}
\setcounter{Hfootnote}{2}
\setcounter{bookmark@seq@number}{30}
\setcounter{lstlisting}{0}
\setcounter{section@level}{3}
}
