\relax 
\providecommand\hyper@newdestlabel[2]{}
\@writefile{toc}{\contentsline {section}{Appendice \numberline {A}Curva di Landau}{30}{Appendice.alph1.Alph1}}
\newlabel{sec:landau_app}{{A}{30}{Curva di Landau}{Appendice.alph1.Alph1}{}}
\newlabel{eq:collisional_app}{{12}{30}{Curva di Landau}{equation.alph1.Alph1.12}{}}
\newlabel{40@xvr}{{}{30}{Curva di Landau}{equation.alph1.Alph1.12}{}}
\newlabel{40@vr}{{}{30}{Curva di Landau}{equation.alph1.Alph1.12}{}}
\newlabel{eq:def_laplace_app}{{13}{30}{Curva di Landau}{equation.alph1.Alph1.13}{}}
\newlabel{eq:laplace_app}{{14}{30}{Curva di Landau}{equation.alph1.Alph1.14}{}}
\newlabel{41@xvr}{{}{30}{Curva di Landau}{equation.alph1.Alph1.14}{}}
\newlabel{41@vr}{{}{30}{Curva di Landau}{equation.alph1.Alph1.14}{}}
\newlabel{42@xvr}{{}{30}{Curva di Landau}{equation.alph1.Alph1.14}{}}
\newlabel{42@vr}{{}{30}{Curva di Landau}{equation.alph1.Alph1.14}{}}
\newlabel{eq:laplace_sol_app}{{15}{30}{Curva di Landau}{equation.alph1.Alph1.15}{}}
\newlabel{43@xvr}{{}{31}{Curva di Landau}{equation.alph1.Alph1.15}{}}
\newlabel{43@vr}{{}{31}{Curva di Landau}{equation.alph1.Alph1.15}{}}
\newlabel{eq:sol_app}{{16}{31}{Curva di Landau}{equation.alph1.Alph1.16}{}}
\newlabel{44@xvr}{{}{31}{Curva di Landau}{equation.alph1.Alph1.17}{}}
\newlabel{44@vr}{{}{31}{Curva di Landau}{equation.alph1.Alph1.17}{}}
\newlabel{45@xvr}{{}{31}{Curva di Landau}{equation.alph1.Alph1.17}{}}
\newlabel{45@vr}{{}{31}{Curva di Landau}{equation.alph1.Alph1.17}{}}
\newlabel{46@xvr}{{}{31}{Curva di Landau}{equation.alph1.Alph1.17}{}}
\newlabel{46@vr}{{}{31}{Curva di Landau}{equation.alph1.Alph1.17}{}}
\newlabel{eq:bethe1_app}{{18}{31}{Curva di Landau}{equation.alph1.Alph1.18}{}}
\newlabel{eq:bethe2_app}{{19}{31}{Curva di Landau}{equation.alph1.Alph1.19}{}}
\@writefile{lot}{\contentsline {table}{\numberline {4}{\ignorespaces \relax }}{31}{table.caption.32}}
\newlabel{tab:bethe_app}{{4}{31}{\relax }{table.caption.32}{}}
\newlabel{eq:int1_app}{{20}{32}{Curva di Landau}{equation.alph1.Alph1.20}{}}
\newlabel{eq:int2_app}{{21}{32}{Curva di Landau}{equation.alph1.Alph1.21}{}}
\newlabel{47@xvr}{{}{32}{Curva di Landau}{equation.alph1.Alph1.21}{}}
\newlabel{47@vr}{{}{32}{Curva di Landau}{equation.alph1.Alph1.21}{}}
\newlabel{48@xvr}{{}{32}{Curva di Landau}{equation.alph1.Alph1.21}{}}
\newlabel{48@vr}{{}{32}{Curva di Landau}{equation.alph1.Alph1.21}{}}
\newlabel{eq:eps_min_app}{{22}{32}{Curva di Landau}{equation.alph1.Alph1.22}{}}
\newlabel{49@xvr}{{}{33}{Curva di Landau}{equation.alph1.Alph1.24}{}}
\newlabel{49@vr}{{}{33}{Curva di Landau}{equation.alph1.Alph1.24}{}}
\newlabel{eq:andau_app}{{25}{33}{Curva di Landau}{equation.alph1.Alph1.25}{}}
\@setckpt{Appendice/Appendice}{
\setcounter{page}{34}
\setcounter{equation}{26}
\setcounter{enumi}{0}
\setcounter{enumii}{0}
\setcounter{enumiii}{0}
\setcounter{enumiv}{0}
\setcounter{footnote}{3}
\setcounter{mpfootnote}{0}
\setcounter{part}{0}
\setcounter{section}{1}
\setcounter{subsection}{0}
\setcounter{subsubsection}{0}
\setcounter{paragraph}{0}
\setcounter{subparagraph}{0}
\setcounter{figure}{27}
\setcounter{table}{4}
\setcounter{@pps}{1}
\setcounter{@ppsavesec}{2}
\setcounter{@ppsaveapp}{0}
\setcounter{parentequation}{0}
\setcounter{AM@survey}{0}
\setcounter{float@type}{8}
\setcounter{ContinuedFloat}{0}
\setcounter{blindtext}{1}
\setcounter{Blindtext}{5}
\setcounter{blind@countparstart}{0}
\setcounter{blindlist}{0}
\setcounter{blindlistlevel}{0}
\setcounter{blindlist@level}{0}
\setcounter{blind@listcount}{0}
\setcounter{blind@levelcount}{0}
\setcounter{blind@randomcount}{0}
\setcounter{blind@randommax}{0}
\setcounter{blind@pangramcount}{0}
\setcounter{blind@pangrammax}{0}
\setcounter{LT@tables}{0}
\setcounter{LT@chunks}{0}
\setcounter{r@tfl@t}{0}
\setcounter{subfigure}{0}
\setcounter{lofdepth}{1}
\setcounter{subtable}{0}
\setcounter{lotdepth}{1}
\setcounter{lstnumber}{1}
\setcounter{vrcnt}{49}
\setcounter{Item}{0}
\setcounter{Hfootnote}{3}
\setcounter{bookmark@seq@number}{31}
\setcounter{lstlisting}{0}
\setcounter{section@level}{1}
}
